// Jest Snapshot v1, https://goo.gl/fbAQLP

exports[`About free software 1`] = `
<div
  data-type="Row"
>
  <div
    data-type="Col"
  >
    <h1
      id="front-page"
    >
      Front page
    </h1>
    

    <div
      className="div-like-p"
    >
      <a
        href="/om"
        onClick={[Function]}
      >
        Internal link
      </a>
      

      <a
        className="external-link"
        href="https://www.fagforbundet.no"
        rel="noopener noreferrer"
        target="_blank"
      >
        External link
      </a>
    </div>
    

    <h1
      id="h1"
    >
      h1
    </h1>
    

    <h2
      id="h2"
    >
      h2
    </h2>
    

    <h3
      id="h3"
    >
      h3
    </h3>
    

    <h4
      id="h4"
    >
      h4
    </h4>
    

    <div
      className="div-like-p"
    >
      <strong>
        bold
      </strong>
      

      <em>
        italic
      </em>
      

      <div
        className="imageContainer"
      >
        <img
          alt="Image text"
          className="img-fluid"
          src="/some/image.jpg"
        />
        <div
          className="img-text"
        >
          <div
            className="div-like-p"
          >
            Image text
          </div>
        </div>
      </div>
      

      <code>
        some code
      </code>
    </div>
    

    <div
      className="div-like-p"
    >
      Another paragraph
    </div>
    

    <blockquote>
      

      <div
        className="div-like-p"
      >
        Blockquote
      </div>
      

    </blockquote>
    

    <ul>
      

      <li>
        List item
      </li>
      

      <li>
        Another list item
      </li>
      

    </ul>
    

    <ol>
      

      <li>
        An ordered
      </li>
      

      <li>
        List
      </li>
      

    </ol>
    

    <hr />
  </div>
</div>
`;

exports[`About pleiar.no 1`] = `
<div
  data-type="Row"
>
  <div
    data-type="Col"
  >
    <h1
      id="front-page"
    >
      Front page
    </h1>
    

    <div
      className="div-like-p"
    >
      <a
        href="/om"
        onClick={[Function]}
      >
        Internal link
      </a>
      

      <a
        className="external-link"
        href="https://www.fagforbundet.no"
        rel="noopener noreferrer"
        target="_blank"
      >
        External link
      </a>
    </div>
    

    <h1
      id="h1"
    >
      h1
    </h1>
    

    <h2
      id="h2"
    >
      h2
    </h2>
    

    <h3
      id="h3"
    >
      h3
    </h3>
    

    <h4
      id="h4"
    >
      h4
    </h4>
    

    <div
      className="div-like-p"
    >
      <strong>
        bold
      </strong>
      

      <em>
        italic
      </em>
      

      <div
        className="imageContainer"
      >
        <img
          alt="Image text"
          className="img-fluid"
          src="/some/image.jpg"
        />
        <div
          className="img-text"
        >
          <div
            className="div-like-p"
          >
            Image text
          </div>
        </div>
      </div>
      

      <code>
        some code
      </code>
    </div>
    

    <div
      className="div-like-p"
    >
      Another paragraph
    </div>
    

    <blockquote>
      

      <div
        className="div-like-p"
      >
        Blockquote
      </div>
      

    </blockquote>
    

    <ul>
      

      <li>
        List item
      </li>
      

      <li>
        Another list item
      </li>
      

    </ul>
    

    <ol>
      

      <li>
        An ordered
      </li>
      

      <li>
        List
      </li>
      

    </ol>
    

    <hr />
  </div>
</div>
`;

exports[`About privacy 1`] = `
<div
  data-type="Row"
>
  <div
    data-type="Col"
  >
    <h1
      id="front-page"
    >
      Front page
    </h1>
    

    <div
      className="div-like-p"
    >
      <a
        href="/om"
        onClick={[Function]}
      >
        Internal link
      </a>
      

      <a
        className="external-link"
        href="https://www.fagforbundet.no"
        rel="noopener noreferrer"
        target="_blank"
      >
        External link
      </a>
    </div>
    

    <h1
      id="h1"
    >
      h1
    </h1>
    

    <h2
      id="h2"
    >
      h2
    </h2>
    

    <h3
      id="h3"
    >
      h3
    </h3>
    

    <h4
      id="h4"
    >
      h4
    </h4>
    

    <div
      className="div-like-p"
    >
      <strong>
        bold
      </strong>
      

      <em>
        italic
      </em>
      

      <div
        className="imageContainer"
      >
        <img
          alt="Image text"
          className="img-fluid"
          src="/some/image.jpg"
        />
        <div
          className="img-text"
        >
          <div
            className="div-like-p"
          >
            Image text
          </div>
        </div>
      </div>
      

      <code>
        some code
      </code>
    </div>
    

    <div
      className="div-like-p"
    >
      Another paragraph
    </div>
    

    <blockquote>
      

      <div
        className="div-like-p"
      >
        Blockquote
      </div>
      

    </blockquote>
    

    <ul>
      

      <li>
        List item
      </li>
      

      <li>
        Another list item
      </li>
      

    </ul>
    

    <ol>
      

      <li>
        An ordered
      </li>
      

      <li>
        List
      </li>
      

    </ol>
    

    <hr />
  </div>
</div>
`;

exports[`AboutSystem FullDOM snapshot 1`] = `
<MemoryRouter
  initialEntries={
    Array [
      Object {
        "key": "testing",
        "pathname": "/om/system",
      },
    ]
  }
>
  <Router
    history={
      Object {
        "action": "POP",
        "block": [Function],
        "canGo": [Function],
        "createHref": [Function],
        "entries": Array [
          Object {
            "hash": "",
            "key": "testing",
            "pathname": "/om/system",
            "search": "",
          },
        ],
        "go": [Function],
        "goBack": [Function],
        "goForward": [Function],
        "index": 0,
        "length": 1,
        "listen": [Function],
        "location": Object {
          "hash": "",
          "key": "testing",
          "pathname": "/om/system",
          "search": "",
        },
        "push": [Function],
        "replace": [Function],
      }
    }
  >
    <Route
      component={[Function]}
      path="/om"
    >
      <component
        history={
          Object {
            "action": "POP",
            "block": [Function],
            "canGo": [Function],
            "createHref": [Function],
            "entries": Array [
              Object {
                "hash": "",
                "key": "testing",
                "pathname": "/om/system",
                "search": "",
              },
            ],
            "go": [Function],
            "goBack": [Function],
            "goForward": [Function],
            "index": 0,
            "length": 1,
            "listen": [Function],
            "location": Object {
              "hash": "",
              "key": "testing",
              "pathname": "/om/system",
              "search": "",
            },
            "push": [Function],
            "replace": [Function],
          }
        }
        location={
          Object {
            "hash": "",
            "key": "testing",
            "pathname": "/om/system",
            "search": "",
          }
        }
        match={
          Object {
            "isExact": false,
            "params": Object {},
            "path": "/om",
            "url": "/om",
          }
        }
      >
        <AboutSystem
          history={
            Object {
              "action": "POP",
              "block": [Function],
              "canGo": [Function],
              "createHref": [Function],
              "entries": Array [
                Object {
                  "hash": "",
                  "key": "testing",
                  "pathname": "/om/system",
                  "search": "",
                },
              ],
              "go": [Function],
              "goBack": [Function],
              "goForward": [Function],
              "index": 0,
              "length": 1,
              "listen": [Function],
              "location": Object {
                "hash": "",
                "key": "testing",
                "pathname": "/om/system",
                "search": "",
              },
              "push": [Function],
              "replace": [Function],
            }
          }
          location={
            Object {
              "hash": "",
              "key": "testing",
              "pathname": "/om/system",
              "search": "",
            }
          }
          match={
            Object {
              "isExact": false,
              "params": Object {},
              "path": "/om",
              "url": "/om",
            }
          }
        >
          <Component>
            <div
              data-type="Row"
            >
              <PageTitle
                title="Systeminformasjon"
              />
              <Component
                className="systemInfo"
              >
                <div
                  data-type="Col"
                >
                  <h2>
                    System
                    <wbr />
                    ­informasjon
                  </h2>
                  <b>
                    Nettleser
                  </b>
                  : 
                  Mozilla/5.0 (linux) AppleWebKit/537.36 (KHTML, like Gecko) jsdom/16.7.0
                  <br />
                  <b>
                    Plattform
                  </b>
                  : 
                   
                  <br />
                  <b>
                    Appversjon
                  </b>
                  : 
                  <ExternalLink
                    href="https://gitlab.com/fagforbundet/pleiar.no/tree/(testing)"
                    sameWindow={true}
                  >
                    <a
                      className=""
                      href="https://gitlab.com/fagforbundet/pleiar.no/tree/(testing)"
                    >
                      <span
                        className="d-none d-sm-inline-block"
                      >
                        (testing)
                      </span>
                      <span
                        className="d-sm-none"
                      >
                        (testing)
                      </span>
                    </a>
                  </ExternalLink>
                  <br />
                  <b>
                    Dataversjon
                  </b>
                  : 
                  (testing)
                  <br />
                  <b>
                    Status for autentisering
                  </b>
                  : 
                  <span>
                    innlogget 
                    <Link
                      to="/auth/logout"
                    >
                      <LinkAnchor
                        href="/auth/logout"
                        navigate={[Function]}
                      >
                        <a
                          href="/auth/logout"
                          onClick={[Function]}
                        >
                          (logg ut)
                        </a>
                      </LinkAnchor>
                    </Link>
                  </span>
                  <br />
                  <b>
                    Inndata
                  </b>
                  :
                   
                  nøyaktig
                  <span
                    className="inputMediaQueries"
                  >
                     - 
                    <span
                      className="hover"
                    >
                      <span
                        className="yes"
                      >
                        hover:hover,
                      </span>
                      <span
                        className="no"
                      >
                        hover:none,
                      </span>
                    </span>
                     
                    <span
                      className="pointer"
                    >
                       
                      <span
                        className="fine"
                      >
                        pointer:fine
                      </span>
                      <span
                        className="coarse"
                      >
                        pointer:coarse
                      </span>
                      <span
                        className="none"
                      >
                        pointer:none
                      </span>
                    </span>
                  </span>
                  <br />
                  <b>
                    Modus
                  </b>
                  : 
                  web
                  <br />
                  <b>
                    PleiarSearcher status
                  </b>
                  : 
                  ikke lastet
                  <br />
                  <b>
                    MedSearcher status
                  </b>
                  : 
                  ikke lastet
                  <br />
                  <b>
                    QuizDataManager status
                  </b>
                  : 
                  ikke lastet
                  <br />
                  <b>
                    Motor-flagg
                  </b>
                  : 
                  (ingen)
                  <br />
                  <b>
                    body-flagg
                  </b>
                  : 
                  (ingen)
                  <br />
                  <b>
                    Synlige brytepunkt
                  </b>
                  : 
                  <span
                    className="d-inline-block"
                    key="xs"
                  >
                    xs 
                  </span>
                  <span
                    className="d-none d-sm-inline-block"
                    key="sm"
                  >
                    sm 
                  </span>
                  <span
                    className="d-none d-md-inline-block"
                    key="md"
                  >
                    md 
                  </span>
                  <span
                    className="d-none d-lg-inline-block"
                    key="lg"
                  >
                    lg 
                  </span>
                  <span
                    className="d-none d-xl-inline-block"
                    key="xl"
                  >
                    xl 
                  </span>
                   (
                  0
                  x
                  0
                  )
                  <br />
                  <b>
                    Lokal tid
                  </b>
                  : 
                  3.4.2018, 15:53:00
                   (
                  1522763580
                  )
                  <br />
                  <b>
                    URL:
                  </b>
                   
                  https://www.pleiar.no/om/system
                  <br />
                  <b>
                    Referrer:
                  </b>
                   
                  (ingen)
                  <br />
                  <b>
                    Service worker
                  </b>
                  : 
                  ikke tilgjengelig
                  <br />
                  <br />
                  <b>
                    Kildefiler:
                  </b>
                  <br />
                  <div
                    className="sourceFiles"
                  >
                    <code
                      key="/"
                    >
                      /
                    </code>
                    <code
                      key="/prefetch"
                    >
                      / (prefetch)
                    </code>
                  </div>
                </div>
              </Component>
            </div>
          </Component>
        </AboutSystem>
      </component>
    </Route>
  </Router>
</MemoryRouter>
`;

exports[`InstallApp with "android-webview" 1`] = `
<div>
  <h3>
    Installer app
  </h3>
  <div>
    Du har pleiar.no åpent i et 
    begrenset nettleser-vindu
    . Det er desverre ikke mulig å installere apper fra 
    begrensede nettleser-vinduer
    . Trykk på 
    <svg
      fill="none"
      height={24}
      stroke="currentColor"
      strokeLinecap="round"
      strokeLinejoin="round"
      strokeWidth="2"
      viewBox="0 0 24 24"
      width={24}
      xmlns="http://www.w3.org/2000/svg"
    >
      <circle
        cx="12"
        cy="12"
        r="1"
      />
      <circle
        cx="19"
        cy="12"
        r="1"
      />
      <circle
        cx="5"
        cy="12"
        r="1"
      />
    </svg>
     oppe til høyre og velg 
    "Åpne med Chrome" (eller "Åpne med Firefox", "Åpne med nettleser" eller lignende)
    . I vinduet som kommer opp kan du velge å installere appen.
  </div>
</div>
`;

exports[`InstallApp with "chrome" 1`] = `
<div>
  <h3>
    Installer app
  </h3>
  <div>
    <b>
      En feil oppstod
    </b>
     under forsøket på å installere appen. Dette kan bety at appen allerede er installert.
    <br />
    <br />
    Hvis appen 
    <i>
      ikke
    </i>
     er installert kan du installere den manuelt ved å trykke på 
    <svg
      fill="none"
      height={24}
      stroke="currentColor"
      strokeLinecap="round"
      strokeLinejoin="round"
      strokeWidth="2"
      viewBox="0 0 24 24"
      width={24}
      xmlns="http://www.w3.org/2000/svg"
    >
      <circle
        cx="12"
        cy="12"
        r="1"
      />
      <circle
        cx="12"
        cy="5"
        r="1"
      />
      <circle
        cx="12"
        cy="19"
        r="1"
      />
    </svg>
     øvers på skjermen (du må kanskje scrolle opp for at knappen skal bli synlig) for så å velge «Legg til på hjemskjermen».
    <br />
    <br />
    Hvis du fremdeles ikke får installert appen, ta kontakt med oss på 
    <a
      className=""
      href="mailto:kontakt@pleiar.no"
    >
      e-post (kontakt@pleiar.no)
    </a>
     så skal vi feilsøke problemet.
  </div>
  <div
    className="mt-2"
  >
    Appversjonen av Pleiar.no fungerer uansett om du har internett eller ikke, og oppdaterer seg selv.
  </div>
</div>
`;

exports[`InstallApp with "facebook-android" 1`] = `
<div>
  <h3>
    Installer app
  </h3>
  <div>
    Du har pleiar.no åpent i et 
    Facebook-vindu
    . Det er desverre ikke mulig å installere apper fra 
    Facebook-vinduet
    . Trykk på 
    <svg
      fill="none"
      height={24}
      stroke="currentColor"
      strokeLinecap="round"
      strokeLinejoin="round"
      strokeWidth="2"
      viewBox="0 0 24 24"
      width={24}
      xmlns="http://www.w3.org/2000/svg"
    >
      <circle
        cx="12"
        cy="12"
        r="1"
      />
      <circle
        cx="19"
        cy="12"
        r="1"
      />
      <circle
        cx="5"
        cy="12"
        r="1"
      />
    </svg>
     oppe til høyre og velg 
    "Åpne med Chrome" (eller "Åpne med Firefox", "Åpne med nettleser" eller lignende)
    . I vinduet som kommer opp kan du velge å installere appen.
  </div>
</div>
`;

exports[`InstallApp with "facebook-ios" 1`] = `
<div>
  <h3>
    Installer app
  </h3>
  <div>
    Du har pleiar.no åpent i et 
    Facebook-vindu
    . Det er desverre ikke mulig å installere apper fra 
    Facebook-vinduet
    . Trykk på 
    <svg
      fill="none"
      height={24}
      stroke="currentColor"
      strokeLinecap="round"
      strokeLinejoin="round"
      strokeWidth="2"
      viewBox="0 0 24 24"
      width={24}
      xmlns="http://www.w3.org/2000/svg"
    >
      <circle
        cx="12"
        cy="12"
        r="1"
      />
      <circle
        cx="19"
        cy="12"
        r="1"
      />
      <circle
        cx="5"
        cy="12"
        r="1"
      />
    </svg>
     oppe til høyre og velg 
    "Åpne med Safari"
    . I vinduet som kommer opp kan du velge å installere appen.
  </div>
</div>
`;

exports[`InstallApp with "firefox-android" 1`] = `
<div>
  <h3>
    Installer app
  </h3>
  <div>
    For å installere Pleiar.no som app, trykk på 
    <feather: home />
     i adresselinja øverst på skjermen og velg så «legg til på startskjermen». Hvis du bruker Firefox Focus må du bytte til vanlig Firefox (eller Chrome) for å kunne installere appen.
  </div>
  <div
    className="mt-2"
  >
    Appversjonen av Pleiar.no fungerer uansett om du har internett eller ikke, og oppdaterer seg selv.
  </div>
</div>
`;

exports[`InstallApp with "ios-other" 1`] = `
<div>
  <h3>
    Installer app
  </h3>
  <div>
    På iPhone og iPad er det bare Safari som kan installere apper. For å installere appversjonen av pleiar.no må du åpne sida i Safari.
  </div>
</div>
`;

exports[`InstallApp with "opera" 1`] = `
<div>
  <h3>
    Installer app
  </h3>
  <div>
    For å installere Pleiar.no som app, scroll opp for å få adresselinja til å bli synlig. Trykk så på 
    <svg
      fill="none"
      height={24}
      stroke="currentColor"
      strokeLinecap="round"
      strokeLinejoin="round"
      strokeWidth="2"
      viewBox="0 0 24 24"
      width={24}
      xmlns="http://www.w3.org/2000/svg"
    >
      <circle
        cx="12"
        cy="12"
        r="1"
      />
      <circle
        cx="12"
        cy="5"
        r="1"
      />
      <circle
        cx="12"
        cy="19"
        r="1"
      />
    </svg>
     øverst på skjermen og velg «Legg til på &gt; Startskjerm».
  </div>
  <div
    className="mt-2"
  >
    Appversjonen av Pleiar.no fungerer uansett om du har internett eller ikke, og oppdaterer seg selv.
  </div>
</div>
`;

exports[`InstallApp with "safari-ios" 1`] = `
<div>
  <h3>
    Installer app
  </h3>
  <div>
    Trykk på 
    <feather: share />
     nederst på skjermen. Scroll litt ned i menyen som kommer opp og velg 
    <b>
      <feather: plus-square />
      Legg til på hjemskjermen
    </b>
    . Ser du ikke 
    <feather: share />
    ? Prøv å scrolle opp og ned på skjermen for å få menylinja til å vises.
  </div>
  <div
    className="mt-2"
  >
    Appversjonen av Pleiar.no fungerer uansett om du har internett eller ikke, og oppdaterer seg selv.
  </div>
</div>
`;

exports[`InstallApp with "samsung" 1`] = `
<div>
  <h3>
    Installer app
  </h3>
  <div>
    For å installere Pleiar.no som app, trykk på 
    <feather: plus-square />
     i adresselinja øverst på skjermen.
    <br />
    <br />
    Samsung Internett støtter app-installasjon kun hvis den er installert fra Galaxy Apps. Hvis du ikke får opp 
    <feather: plus-square />
     knappen, prøv å bruke en annen nettleser som f.eks. 
    <a
      className="external-link"
      href="https://play.google.com/store/apps/details?id=com.android.chrome"
      rel="noopener noreferrer"
      target="_blank"
    >
      Chrome
    </a>
     eller 
    <a
      className="external-link"
      href="https://play.google.com/store/apps/details?id=org.mozilla.firefox"
      rel="noopener noreferrer"
      target="_blank"
    >
      Firefox
    </a>
    .
  </div>
  <div
    className="mt-2"
  >
    Appversjonen av Pleiar.no fungerer uansett om du har internett eller ikke, og oppdaterer seg selv.
  </div>
</div>
`;

exports[`Routing 1`] = `
<div>
  <div
    data-type="Row"
  >
    <div
      data-type="Col"
    >
      <h1
        id="front-page"
      >
        Front page
      </h1>
      

      <div
        className="div-like-p"
      >
        <a
          href="/om"
          onClick={[Function]}
        >
          Internal link
        </a>
        

        <a
          className="external-link"
          href="https://www.fagforbundet.no"
          rel="noopener noreferrer"
          target="_blank"
        >
          External link
        </a>
      </div>
      

      <h1
        id="h1"
      >
        h1
      </h1>
      

      <h2
        id="h2"
      >
        h2
      </h2>
      

      <h3
        id="h3"
      >
        h3
      </h3>
      

      <h4
        id="h4"
      >
        h4
      </h4>
      

      <div
        className="div-like-p"
      >
        <strong>
          bold
        </strong>
        

        <em>
          italic
        </em>
        

        <div
          className="imageContainer"
        >
          <img
            alt="Image text"
            className="img-fluid"
            src="/some/image.jpg"
          />
          <div
            className="img-text"
          >
            <div
              className="div-like-p"
            >
              Image text
            </div>
          </div>
        </div>
        

        <code>
          some code
        </code>
      </div>
      

      <div
        className="div-like-p"
      >
        Another paragraph
      </div>
      

      <blockquote>
        

        <div
          className="div-like-p"
        >
          Blockquote
        </div>
        

      </blockquote>
      

      <ul>
        

        <li>
          List item
        </li>
        

        <li>
          Another list item
        </li>
        

      </ul>
      

      <ol>
        

        <li>
          An ordered
        </li>
        

        <li>
          List
        </li>
        

      </ol>
      

      <hr />
    </div>
  </div>
</div>
`;

exports[`Routing 2`] = `
<div>
  <div
    data-type="Row"
  >
    <div
      data-type="Col"
    >
      <h1
        id="front-page"
      >
        Front page
      </h1>
      

      <div
        className="div-like-p"
      >
        <a
          href="/om"
          onClick={[Function]}
        >
          Internal link
        </a>
        

        <a
          className="external-link"
          href="https://www.fagforbundet.no"
          rel="noopener noreferrer"
          target="_blank"
        >
          External link
        </a>
      </div>
      

      <h1
        id="h1"
      >
        h1
      </h1>
      

      <h2
        id="h2"
      >
        h2
      </h2>
      

      <h3
        id="h3"
      >
        h3
      </h3>
      

      <h4
        id="h4"
      >
        h4
      </h4>
      

      <div
        className="div-like-p"
      >
        <strong>
          bold
        </strong>
        

        <em>
          italic
        </em>
        

        <div
          className="imageContainer"
        >
          <img
            alt="Image text"
            className="img-fluid"
            src="/some/image.jpg"
          />
          <div
            className="img-text"
          >
            <div
              className="div-like-p"
            >
              Image text
            </div>
          </div>
        </div>
        

        <code>
          some code
        </code>
      </div>
      

      <div
        className="div-like-p"
      >
        Another paragraph
      </div>
      

      <blockquote>
        

        <div
          className="div-like-p"
        >
          Blockquote
        </div>
        

      </blockquote>
      

      <ul>
        

        <li>
          List item
        </li>
        

        <li>
          Another list item
        </li>
        

      </ul>
      

      <ol>
        

        <li>
          An ordered
        </li>
        

        <li>
          List
        </li>
        

      </ol>
      

      <hr />
    </div>
  </div>
</div>
`;

exports[`Routing 3`] = `
<div>
  <div
    data-type="Row"
  >
    <div
      data-type="Col"
    >
      <h1
        id="front-page"
      >
        Front page
      </h1>
      

      <div
        className="div-like-p"
      >
        <a
          href="/om"
          onClick={[Function]}
        >
          Internal link
        </a>
        

        <a
          className="external-link"
          href="https://www.fagforbundet.no"
          rel="noopener noreferrer"
          target="_blank"
        >
          External link
        </a>
      </div>
      

      <h1
        id="h1"
      >
        h1
      </h1>
      

      <h2
        id="h2"
      >
        h2
      </h2>
      

      <h3
        id="h3"
      >
        h3
      </h3>
      

      <h4
        id="h4"
      >
        h4
      </h4>
      

      <div
        className="div-like-p"
      >
        <strong>
          bold
        </strong>
        

        <em>
          italic
        </em>
        

        <div
          className="imageContainer"
        >
          <img
            alt="Image text"
            className="img-fluid"
            src="/some/image.jpg"
          />
          <div
            className="img-text"
          >
            <div
              className="div-like-p"
            >
              Image text
            </div>
          </div>
        </div>
        

        <code>
          some code
        </code>
      </div>
      

      <div
        className="div-like-p"
      >
        Another paragraph
      </div>
      

      <blockquote>
        

        <div
          className="div-like-p"
        >
          Blockquote
        </div>
        

      </blockquote>
      

      <ul>
        

        <li>
          List item
        </li>
        

        <li>
          Another list item
        </li>
        

      </ul>
      

      <ol>
        

        <li>
          An ordered
        </li>
        

        <li>
          List
        </li>
        

      </ol>
      

      <hr />
    </div>
  </div>
</div>
`;

exports[`Routing 4`] = `
<div>
  <div
    data-type="Row"
  >
    <div
      data-type="Col"
    >
      <h1
        id="front-page"
      >
        Front page
      </h1>
      

      <div
        className="div-like-p"
      >
        <a
          href="/om"
          onClick={[Function]}
        >
          Internal link
        </a>
        

        <a
          className="external-link"
          href="https://www.fagforbundet.no"
          rel="noopener noreferrer"
          target="_blank"
        >
          External link
        </a>
      </div>
      

      <h1
        id="h1"
      >
        h1
      </h1>
      

      <h2
        id="h2"
      >
        h2
      </h2>
      

      <h3
        id="h3"
      >
        h3
      </h3>
      

      <h4
        id="h4"
      >
        h4
      </h4>
      

      <div
        className="div-like-p"
      >
        <strong>
          bold
        </strong>
        

        <em>
          italic
        </em>
        

        <div
          className="imageContainer"
        >
          <img
            alt="Image text"
            className="img-fluid"
            src="/some/image.jpg"
          />
          <div
            className="img-text"
          >
            <div
              className="div-like-p"
            >
              Image text
            </div>
          </div>
        </div>
        

        <code>
          some code
        </code>
      </div>
      

      <div
        className="div-like-p"
      >
        Another paragraph
      </div>
      

      <blockquote>
        

        <div
          className="div-like-p"
        >
          Blockquote
        </div>
        

      </blockquote>
      

      <ul>
        

        <li>
          List item
        </li>
        

        <li>
          Another list item
        </li>
        

      </ul>
      

      <ol>
        

        <li>
          An ordered
        </li>
        

        <li>
          List
        </li>
        

      </ol>
      

      <hr />
    </div>
  </div>
</div>
`;
