// Jest Snapshot v1, https://goo.gl/fbAQLP

exports[`AuthOverlay snapshot 1`] = `
<div
  className="authOverlay"
>
  <a
    className=""
    href="https://www.fagforbundet.no/"
    rel="noopener noreferrer"
    target="_blank"
  >
    <img
      alt="Fagforbundet"
      className="img-fluid branding"
      src="/brand.png"
    />
  </a>
  <div
    className="loginBox"
  >
    Pleiar.no er en tjeneste levert av Fagforbundet til sine medlemmer.
    <br />
    Er du medlem bruker du bare mobiltelefonen din eller BankID for å 
    <a
      className=""
      href="http://example.com/?return_to=https://www.pleiar.no/auth&app_id=no.pleiar"
    >
      logge inn
    </a>
    . Ikke medlem? 
    <a
      className=""
      href="https://www.fagforbundet.no/medlemskap-og-fordeler/"
    >
      Meld deg inn
    </a>
    !
    <br />
    <br />
    <a
      className=""
      href="http://example.com/?return_to=https://www.pleiar.no/auth&app_id=no.pleiar"
    >
      <button
        color="primary"
      >
        Logg inn
      </button>
    </a>
     
    <a
      className=""
      href="https://www.fagforbundet.no/medlemskap-og-fordeler/"
    >
      <button
        color="secondary"
      >
        Bli medlem
      </button>
    </a>
  </div>
</div>
`;

exports[`InlineAuthBlock snapshot 1`] = `
<div
  className="authOverlay"
>
  <a
    className=""
    href="https://www.fagforbundet.no/"
    rel="noopener noreferrer"
    target="_blank"
  >
    <img
      alt="Fagforbundet"
      className="img-fluid branding"
      src="/brand.png"
    />
  </a>
  <div
    className="loginBox"
  >
    Pleiar.no er en tjeneste levert av Fagforbundet til sine medlemmer.
    <br />
    Er du medlem bruker du bare mobiltelefonen din eller BankID for å 
    <a
      className=""
      href="http://example.com/?return_to=https://www.pleiar.no/auth&app_id=no.pleiar"
    >
      logge inn
    </a>
    . Ikke medlem? 
    <a
      className=""
      href="https://www.fagforbundet.no/medlemskap-og-fordeler/"
    >
      Meld deg inn
    </a>
    !
    <br />
    <br />
    <a
      className=""
      href="http://example.com/?return_to=https://www.pleiar.no/auth&app_id=no.pleiar"
    >
      <button
        color="primary"
      >
        Logg inn
      </button>
    </a>
     
    <a
      className=""
      href="https://www.fagforbundet.no/medlemskap-og-fordeler/"
    >
      <button
        color="secondary"
      >
        Bli medlem
      </button>
    </a>
  </div>
</div>
`;

exports[`RequiresAuth Not authenticated snapshot 1`] = `
<div
  className="authn"
>
  <div
    className="authOverlay"
  >
    <a
      className=""
      href="https://www.fagforbundet.no/"
      rel="noopener noreferrer"
      target="_blank"
    >
      <img
        alt="Fagforbundet"
        className="img-fluid branding"
        src="/brand.png"
      />
    </a>
    <div
      className="loginBox"
    >
      Pleiar.no er en tjeneste levert av Fagforbundet til sine medlemmer.
      <br />
      Er du medlem bruker du bare mobiltelefonen din eller BankID for å 
      <a
        className=""
        href="http://example.com/?return_to=https://www.pleiar.no/auth&app_id=no.pleiar"
      >
        logge inn
      </a>
      . Ikke medlem? 
      <a
        className=""
        href="https://www.fagforbundet.no/medlemskap-og-fordeler/"
      >
        Meld deg inn
      </a>
      !
      <br />
      <br />
      <a
        className=""
        href="http://example.com/?return_to=https://www.pleiar.no/auth&app_id=no.pleiar"
      >
        <button
          color="primary"
        >
          Logg inn
        </button>
      </a>
       
      <a
        className=""
        href="https://www.fagforbundet.no/medlemskap-og-fordeler/"
      >
        <button
          color="secondary"
        >
          Bli medlem
        </button>
      </a>
    </div>
  </div>
  <div
    className="requiresAuthentication auth-content"
  >
    Something
  </div>
</div>
`;
