// Jest Snapshot v1, https://goo.gl/fbAQLP

exports[`HandbookEntry .toc 1`] = `
Array [
  "Pleiar.no",
  "Using this repository",
  "Dependencies",
  "Data set",
  "git branches",
  "License",
  "Permission for Fagforbundet to combine AGPL code with non-free data",
]
`;
