// Jest Snapshot v1, https://goo.gl/fbAQLP

exports[`LabValueCategoryTable 1`] = `
<div
  className="LabValueTable"
>
  <h3
    id="hormonanalyser-i-urin"
  >
    Hormonanalyser i urin
  </h3>
  <div>
    Vær oppmerksom på at konsentrasjonen av mange hormoner kan variere betydelig gjennom døgnet, gjennom menstruasjonssyklus og gjennom livet.
     
    Referanseverdiene per døgn er de som vanligvis finnes, og beregningene forutsetter at urinvolum og samletid er oppgitt.
  </div>
  <table>
    <thead>
      <tr>
        <th>
          Navn
        </th>
        <th>
          <span
            className="d-none d-md-block"
          >
            Materiale
          </span>
          <span
            className="d-md-none"
          >
            <span
              className="d-none d-lg-inline"
            >
              Materiale
            </span>
            <span
              className="d-lg-none abbreviation"
              id="abbrevmat"
              onClick={[Function]}
            >
              Mat.
            </span>
            <div
              data-type="Tooltip"
            >
              Materiale
            </div>
          </span>
        </th>
        <th>
          Referanseområde
        </th>
        <th>
          Merknad
        </th>
      </tr>
    </thead>
    <tbody />
  </table>
</div>
`;

exports[`LabValueCategoryTable 2`] = `
<div
  className="LabValueTable"
>
  <h3
    id="klinisk-kjemi-i-urin-og-spinalvæske"
  >
    Klinisk kjemi i urin og spinalvæske
  </h3>
  <div>
    I urinen er utskillelsen av elektrolytter, urinstoff og urinsyre avhengig av kostholdet, og kan derfor variere sterkt.
     
    Referanseverdiene per døgn er de som vanligvis finnes, og beregningene forutsetter at urinvolum og samletid er oppgitt.
  </div>
  <table>
    <thead>
      <tr>
        <th>
          Navn
        </th>
        <th>
          <span
            className="d-none d-md-block"
          >
            Materiale
          </span>
          <span
            className="d-md-none"
          >
            <span
              className="d-none d-lg-inline"
            >
              Materiale
            </span>
            <span
              className="d-lg-none abbreviation"
              id="abbrevmat"
              onClick={[Function]}
            >
              Mat.
            </span>
            <div
              data-type="Tooltip"
            >
              Materiale
            </div>
          </span>
        </th>
        <th>
          Referanseområde
        </th>
        <th>
          Merknad
        </th>
      </tr>
    </thead>
    <tbody />
  </table>
</div>
`;

exports[`LabValueCategoryTable 3`] = `
<div
  className="LabValueTable"
>
  <h3
    id="klinisk-farmakologi"
  >
    Klinisk farmakologi
  </h3>
  <table>
    <thead>
      <tr>
        <th>
          Navn
        </th>
        <th>
          <span
            className="d-none d-md-block"
          >
            Materiale
          </span>
          <span
            className="d-md-none"
          >
            <span
              className="d-none d-lg-inline"
            >
              Materiale
            </span>
            <span
              className="d-lg-none abbreviation"
              id="abbrevmat"
              onClick={[Function]}
            >
              Mat.
            </span>
            <div
              data-type="Tooltip"
            >
              Materiale
            </div>
          </span>
        </th>
        <th>
          Terapeutisk område
        </th>
        <th>
          Merknad
        </th>
      </tr>
    </thead>
    <tbody />
  </table>
</div>
`;

exports[`LabValueEntryCleartext basic rendering 1`] = `
<LabValueEntryCleartext
  entry={
    Object {
      "category": "Hematologi, koagulasjon mm.",
      "materiale": "S",
      "navn": "B12",
      "ref": "140-600 pmol/l",
    }
  }
/>
`;

exports[`LabValueEntryCleartextElement 1`] = `
<div>
  <span
    className="labValueField"
  >
    Title
    :
  </span>
   
  Test
</div>
`;

exports[`LabValueEntryCleartextElement 2`] = `
<div>
  <div
    className="labValueField"
  >
    Title
    :
  </div>
  <div
    className="labValueLiteral"
  >
    Test
with
newlines
  </div>
</div>
`;
