// Jest Snapshot v1, https://goo.gl/fbAQLP

exports[`Pleiar component production 1`] = `
Array [
  <div>
    SCROLLTOTOPHELPER
  </div>,
  <div>
    <div>
      MENU
    </div>
    <div>
      FRONT PAGE
    </div>
  </div>,
]
`;

exports[`Pleiar component staging 1`] = `
Array [
  <div>
    SCROLLTOTOPHELPER
  </div>,
  <div>
    <div>
      MENU
    </div>
    <div
      className="text-center alert alert-warning fade"
      role="alert"
    >
      Dette er utviklingsversjonen av Pleiar.no. Den er berre til testing og kan vere ustabil. 
      
       
      <a
        className=""
        href="https://www.pleiar.no/"
      >
        Gå til 
        den vanlige versjonen.
      </a>
    </div>
    <div>
      FRONT PAGE
    </div>
  </div>,
]
`;
