// Jest Snapshot v1, https://goo.gl/fbAQLP

exports[`Markdown basic rendering 1`] = `null`;

exports[`MarkdownBasicLink external 1`] = `
<a
  className="external-link"
  href="https://www.fagforbundet.no"
  rel="noopener noreferrer"
  target="_blank"
>
  Test
</a>
`;

exports[`MarkdownBasicLink internal 1`] = `
<MarkdownBasicLink
  href="/ordliste"
>
  <Link
    to="/ordliste"
  >
    <LinkAnchor
      href="/ordliste"
      navigate={[Function]}
    >
      <a
        href="/ordliste"
        onClick={[Function]}
      >
        Test
      </a>
    </LinkAnchor>
  </Link>
</MarkdownBasicLink>
`;

exports[`MarkdownBasicLink mailto 1`] = `
<a
  className=""
  href="mailto:test@example.com"
>
  Test
</a>
`;

exports[`MarkdownExtendedLink Force external links 1`] = `
<a
  className="external-link"
  href="/some-path/file.pdf"
  rel="noopener noreferrer"
  target="_blank"
>
  Hello world
</a>
`;

exports[`MarkdownExtendedLink external object rendering (!) !dict 1`] = `
<MarkdownExtendedLink
  href="!dict/Afasi"
>
  <DictionaryEntry
    entry={
      Object {
        "description": "Afasi er språkvansker som kommer av en hjerneskade. Det kan være problemer med å forstå språk (sensorisk afasi) eller med å uttrykke språk (motorisk afasi). Den vanligste årsaken er [hjerneslag](hjerneslag).",
        "expression": "Afasi",
        "moreInfoURLs": Array [
          "https://sml.snl.no/afasi",
        ],
        "seeHandbook": "/Readme/README",
      }
    }
    forceAuth={true}
    inhibitTitle={true}
  >
    <Component
      className="dictionaryEntry"
      key="Afasi"
    >
      <div
        data-type="Row"
      >
        <Component>
          <div
            data-type="Col"
          >
            <span
              className="auth-content"
            >
              <ReactMarkdown
                components={
                  Object {
                    "a": [Function],
                  }
                }
                transformLinkUri={[Function]}
              >
                <p
                  key="p-1-1-0"
                >
                  Afasi er språkvansker som kommer av en hjerneskade. Det kan være problemer med å forstå språk (sensorisk afasi) eller med å uttrykke språk (motorisk afasi). Den vanligste årsaken er 
                  <DictionaryLink
                    href="hjerneslag"
                    key="a-1-183-1"
                    node={
                      Object {
                        "children": Array [
                          Object {
                            "position": Object {
                              "end": Object {
                                "column": 194,
                                "line": 1,
                                "offset": 193,
                              },
                              "start": Object {
                                "column": 184,
                                "line": 1,
                                "offset": 183,
                              },
                            },
                            "type": "text",
                            "value": "hjerneslag",
                          },
                        ],
                        "position": Object {
                          "end": Object {
                            "column": 207,
                            "line": 1,
                            "offset": 206,
                          },
                          "start": Object {
                            "column": 183,
                            "line": 1,
                            "offset": 182,
                          },
                        },
                        "properties": Object {
                          "href": "hjerneslag",
                        },
                        "tagName": "a",
                        "type": "element",
                      }
                    }
                  >
                    <Link
                      to="/ordliste/hjerneslag"
                    >
                      <LinkAnchor
                        href="/ordliste/hjerneslag"
                        navigate={[Function]}
                      >
                        <a
                          href="/ordliste/hjerneslag"
                          onClick={[Function]}
                        >
                          hjerneslag
                        </a>
                      </LinkAnchor>
                    </Link>
                  </DictionaryLink>
                  .
                </p>
              </ReactMarkdown>
               
              <SomeDictEntries
                prefix="Se også"
                singleEntryRenderer={[Function]}
              />
               
              <Link
                to="/handbok/Readme/README"
              >
                <LinkAnchor
                  href="/handbok/Readme/README"
                  navigate={[Function]}
                >
                  <a
                    href="/handbok/Readme/README"
                    onClick={[Function]}
                  >
                    Les mer i håndboken.
                  </a>
                </LinkAnchor>
              </Link>
               
              <SomeDictEntries
                entries={
                  Array [
                    "https://sml.snl.no/afasi",
                  ]
                }
                prefix="Ytterligere informasjon på"
                singleEntryRenderer={[Function]}
              >
                <span
                  className="readMore"
                >
                  <span>
                    Ytterligere informasjon på
                     
                  </span>
                  <ReadMoreEntry
                    entry="https://sml.snl.no/afasi"
                    key="https://sml.snl.no/afasi"
                  >
                    <ExternalLink
                      href="https://sml.snl.no/afasi"
                    >
                      <a
                        className="external-link"
                        href="https://sml.snl.no/afasi"
                        rel="noopener noreferrer"
                        target="_blank"
                      >
                        SML
                      </a>
                    </ExternalLink>
                  </ReadMoreEntry>
                  .
                </span>
              </SomeDictEntries>
            </span>
          </div>
        </Component>
      </div>
    </Component>
  </DictionaryEntry>
</MarkdownExtendedLink>
`;

exports[`MarkdownExtendedLink external object rendering (!) !dict 2`] = `
<MarkdownExtendedLink
  href="!dict/Akuttfaseprotein"
>
  <MarkdownExtendedLinkError
    additionalValues={
      Object {
        "name": "Akuttfaseprotein",
      }
    }
    message="Kunne ikkje slå opp oppføring i ordlista"
    nodeParams={
      Array [
        "Akuttfaseprotein",
      ]
    }
    nodeType="dict"
  >
    <Component
      color="danger"
    >
      <div
        data-type="Alert"
      >
        MarkdownExtendedLink: 
        <b>
          Kunne ikkje slå opp oppføring i ordlista
        </b>
        <br />
        nodeType: 
        dict
        <br />
        nodeParams: 
        ["Akuttfaseprotein"]
        <br />
        additionalValues: 
        {"name":"Akuttfaseprotein"}
      </div>
    </Component>
  </MarkdownExtendedLinkError>
</MarkdownExtendedLink>
`;

exports[`MarkdownExtendedLink external object rendering (!) !dict 3`] = `
<MarkdownExtendedLink
  href="!dict/C-reaktivt%20protein%20-%20CRP"
>
  <DictionaryEntry
    entry={
      Object {
        "description": "[Akuttfaseprotein](akuttfaseprotein). Ofte målt i blodprøver for å undersøke om en pasient har en infeksjon, og eventuelt hvilken type infeksjon pasienten har.",
        "expression": "C-reaktivt protein - CRP",
        "moreInfoURLs": Array [
          "https://analyseoversikten.no/analyse/168",
        ],
      }
    }
    forceAuth={true}
    inhibitTitle={true}
  >
    <Component
      className="dictionaryEntry"
      key="C-reaktivt protein - CRP"
    >
      <div
        data-type="Row"
      >
        <Component>
          <div
            data-type="Col"
          >
            <span
              className="auth-content"
            >
              <ReactMarkdown
                components={
                  Object {
                    "a": [Function],
                  }
                }
                transformLinkUri={[Function]}
              >
                <p
                  key="p-1-1-0"
                >
                  <DictionaryLink
                    href="akuttfaseprotein"
                    key="a-1-1-0"
                    node={
                      Object {
                        "children": Array [
                          Object {
                            "position": Object {
                              "end": Object {
                                "column": 18,
                                "line": 1,
                                "offset": 17,
                              },
                              "start": Object {
                                "column": 2,
                                "line": 1,
                                "offset": 1,
                              },
                            },
                            "type": "text",
                            "value": "Akuttfaseprotein",
                          },
                        ],
                        "position": Object {
                          "end": Object {
                            "column": 37,
                            "line": 1,
                            "offset": 36,
                          },
                          "start": Object {
                            "column": 1,
                            "line": 1,
                            "offset": 0,
                          },
                        },
                        "properties": Object {
                          "href": "akuttfaseprotein",
                        },
                        "tagName": "a",
                        "type": "element",
                      }
                    }
                  >
                    <Link
                      to="/ordliste/akuttfaseprotein"
                    >
                      <LinkAnchor
                        href="/ordliste/akuttfaseprotein"
                        navigate={[Function]}
                      >
                        <a
                          href="/ordliste/akuttfaseprotein"
                          onClick={[Function]}
                        >
                          Akuttfaseprotein
                        </a>
                      </LinkAnchor>
                    </Link>
                  </DictionaryLink>
                  . Ofte målt i blodprøver for å undersøke om en pasient har en infeksjon, og eventuelt hvilken type infeksjon pasienten har.
                </p>
              </ReactMarkdown>
               
              <SomeDictEntries
                prefix="Se også"
                singleEntryRenderer={[Function]}
              />
               
               
              <SomeDictEntries
                entries={
                  Array [
                    "https://analyseoversikten.no/analyse/168",
                  ]
                }
                prefix="Les mer på"
                singleEntryRenderer={[Function]}
              >
                <span
                  className="readMore"
                >
                  <span>
                    Les mer på
                     
                  </span>
                  <ReadMoreEntry
                    entry="https://analyseoversikten.no/analyse/168"
                    key="https://analyseoversikten.no/analyse/168"
                  >
                    <ExternalLink
                      href="https://analyseoversikten.no/analyse/168"
                    >
                      <a
                        className="external-link"
                        href="https://analyseoversikten.no/analyse/168"
                        rel="noopener noreferrer"
                        target="_blank"
                      >
                        Analyseoversikten
                      </a>
                    </ExternalLink>
                  </ReadMoreEntry>
                  .
                </span>
              </SomeDictEntries>
            </span>
          </div>
        </Component>
      </div>
    </Component>
  </DictionaryEntry>
</MarkdownExtendedLink>
`;

exports[`MarkdownExtendedLink external object rendering (!) !handbookIndex* handbookIndexOpen valid 1`] = `
<div
  className="handbookIndex"
>
  <div
    className="linkList Accordion always-open"
  />
</div>
`;

exports[`MarkdownExtendedLink external object rendering (!) !handbookIndex* handbookIndexPlain valid 1`] = `
<div
  className="handbookIndex"
>
  <ul>
    <li
      className="topSection"
    >
      <a
        href="/handbok/Readme/README"
        onClick={[Function]}
      >
        Pleiar.no README
      </a>
    </li>
    <li
      className="topSection"
    >
      <a
        href="/handbok/Readme/REPO-README"
        onClick={[Function]}
      >
        Pleiar.no public dataset README
      </a>
    </li>
  </ul>
</div>
`;

exports[`MarkdownExtendedLink external object rendering (!) !labValues 1`] = `
<div
  className="LabValueTables"
>
  <div
    className="LabValueTable"
  >
    <h3
      id="hematologi-koagulasjon-mm"
    >
      Hematologi, koagulasjon mm.
    </h3>
    <table>
      <thead>
        <tr>
          <th>
            Navn
          </th>
          <th>
            <span
              className="d-none d-md-block"
            >
              Materiale
            </span>
            <span
              className="d-md-none"
            >
              <span
                className="d-none d-lg-inline"
              >
                Materiale
              </span>
              <span
                className="d-lg-none abbreviation"
                id="abbrevmat"
                onClick={[Function]}
              >
                Mat.
              </span>
              <div
                data-type="Tooltip"
              >
                Materiale
              </div>
            </span>
          </th>
          <th>
            Referanseområde
          </th>
          <th>
            Merknad
          </th>
        </tr>
      </thead>
      <tbody>
        <tr>
          <td>
            B12
          </td>
          <td>
            <span
              className="abbreviation"
              id="wd-b12s"
              onClick={[Function]}
            >
              <span
                className="d-none d-lg-inline"
              >
                Serum
              </span>
              <span
                className="d-lg-none"
              >
                S
              </span>
            </span>
            <div
              data-type="Popover"
            >
              <div
                data-type="PopoverBody"
              >
                Serum er blodet når alle blodceller (erytrocytter, leukocytter, blodplater) og koagulasjonsfaktorer er fjernet.
              </div>
            </div>
          </td>
          <td>
            140-600 pmol/l
          </td>
          <td />
        </tr>
      </tbody>
    </table>
  </div>
</div>
`;

exports[`MarkdownExtendedLink external object rendering (!) !labValues 2`] = `
<div
  className="LabValueTable"
>
  <table>
    <thead>
      <tr>
        <th>
          Navn
        </th>
        <th>
          <span
            className="d-none d-md-block"
          >
            Materiale
          </span>
          <span
            className="d-md-none"
          >
            <span
              className="d-none d-lg-inline"
            >
              Materiale
            </span>
            <span
              className="d-lg-none abbreviation"
              id="abbrevmat"
              onClick={[Function]}
            >
              Mat.
            </span>
            <div
              data-type="Tooltip"
            >
              Materiale
            </div>
          </span>
        </th>
        <th>
          Referanseområde
        </th>
        <th>
          Merknad
        </th>
      </tr>
    </thead>
    <tbody>
      <tr>
        <td>
          B12
        </td>
        <td>
          <span
            className="abbreviation"
            id="wd-b12s"
            onClick={[Function]}
          >
            <span
              className="d-none d-lg-inline"
            >
              Serum
            </span>
            <span
              className="d-lg-none"
            >
              S
            </span>
          </span>
          <div
            data-type="Popover"
          >
            <div
              data-type="PopoverBody"
            >
              Serum er blodet når alle blodceller (erytrocytter, leukocytter, blodplater) og koagulasjonsfaktorer er fjernet.
            </div>
          </div>
        </td>
        <td>
          140-600 pmol/l
        </td>
        <td />
      </tr>
    </tbody>
  </table>
</div>
`;

exports[`MarkdownExtendedLink internal link generation and rendering Invalid internal link 1`] = `
<span>
  Hello world
   (intern feil: lenkefeil)
</span>
`;

exports[`MarkdownExtendedLink internal link generation and rendering Valid internal link, :dict 1`] = `
<a
  href="/ordliste/Dictionary"
  onClick={[Function]}
>
  Hello world
</a>
`;

exports[`MarkdownExtendedLink internal link generation and rendering Valid internal link, :elearn 1`] = `
<a
  href="/elaering/testQuiz"
  onClick={[Function]}
>
  Hello world
</a>
`;

exports[`MarkdownExtendedLink internal link generation and rendering Valid internal link, :handbook 1`] = `
<a
  href="/handbok/Readme"
  onClick={[Function]}
>
  Hello world
</a>
`;

exports[`MarkdownExtendedLink internal link generation and rendering Valid internal link, :quickref 1`] = `
<a
  href="/oppslag/Sepsis"
  onClick={[Function]}
>
  Hello world
</a>
`;

exports[`MarkdownExtendedLinkError 1`] = `
<div
  data-type="Alert"
>
  MarkdownExtendedLink: 
  <b>
    Hello Error
  </b>
  <br />
  nodeType: 
  tests
  <br />
  nodeParams: 
  ["one","two","three"]
  <br />
  additionalValues: 
  {"value":"one","anotherValue":"two"}
</div>
`;

exports[`MarkdownExtendedParagraph 1`] = `
<div
  className="div-like-p"
>
  Test
</div>
`;

exports[`MarkdownHeader 1`] = `
<h2
  id=""
>
  Test
</h2>
`;

exports[`MarkdownImg with alt text 1`] = `
<div
  className="imageContainer"
>
  <img
    alt="alt-text"
    className="img-fluid"
    src="/image.png"
  />
  <div
    className="img-text"
  >
    <div
      className="div-like-p"
    >
      alt-text
    </div>
  </div>
</div>
`;

exports[`MarkdownImg with alt-only text 1`] = `
<div
  className="imageContainer"
>
  <img
    alt="alt-only-text"
    className="img-fluid"
    src="/image.png"
  />
  <div
    className="img-text"
  />
</div>
`;

exports[`MarkdownImg without alt text 1`] = `
<img
  alt=""
  className="img-fluid"
  src="/image.png"
/>
`;
