// Jest Snapshot v1, https://goo.gl/fbAQLP

exports[`MedicationSynonyms Base snapshot 1`] = `
<div
  className="app-med-synonyms"
>
  <a
    className="d-block tool-back-link"
    href="/verktoy"
    onClick={[Function]}
  >
    « Tilbake til verktøylista
  </a>
  <div
    data-type="Row"
  >
    <div
      data-type="Col"
    >
      <div
        data-type="Row"
      >
        <div
          data-type="Col"
        >
          <h3>
            Synonymliste for medikament
          </h3>
        </div>
      </div>
      <div
        data-type="Row"
      >
        <div
          data-type="Col"
        >
          <input
            id="medicationSynonymsSearch"
            name="search"
            onChange={[Function]}
            placeholder="Søk"
            type="search"
            value=""
          />
        </div>
      </div>
      <div
        data-type="Row"
      >
        <div
          data-type="Col"
        >
          <small>
            Dette er et hjelpeverktøy. Du er selv ansvarlig for å sikre at bytter er forsvarlige og, hvis din organisasjon krever det, å få byttene godkjent av ordinerende lege. Data hentet fra 
            <a
              className="external-link"
              href="https://legemiddelverket.no/andre-temaer/fest"
              rel="noopener noreferrer"
              target="_blank"
            >
              forskrivnings- og ekspedisjonsstøtte (FEST)
            </a>
             levert av 
            <a
              className="external-link"
              href="https://legemiddelverket.no/"
              rel="noopener noreferrer"
              target="_blank"
            >
              Statens Legemiddelverk
            </a>
          </small>
          .
        </div>
      </div>
      <div />
    </div>
  </div>
</div>
`;

exports[`MedicationSynonymsResultATC Base snapshot 1`] = `
Array [
  <div
    data-type="Row"
  >
    <div
      data-type="Col"
    >
      <b>
        Merk:
      </b>
       ATC kode ikke nødvendigvis er det samme som byttbarhet, da legemidler med samme ATC kode kan ha forskjellig styrke og legemiddelform (depot/vanlig tablett, mikstur/tablett). Sjekk med ordinerende lege før du bytter.
    </div>
  </div>,
  <div
    data-type="Row"
  >
    <div
      data-type="Col"
    >
      Vulpix 200 mg
       (
      <span
        className="atc-code"
        onClick={[Function]}
      >
        ATC 
        TES
         
        T
      </span>
      )
    </div>
  </div>,
  <div
    data-type="Row"
  >
    <div
      data-type="Col"
    >
      Ursaring 100 mg
       (
      <span
        className="atc-code"
        onClick={[Function]}
      >
        ATC 
        TES
         
        T
      </span>
      )
    </div>
  </div>,
  <div
    data-type="Row"
  >
    <div
      data-type="Col"
    >
      Urasaring 100 mg
       (
      <span
        className="atc-code"
        onClick={[Function]}
      >
        ATC 
        TES
         
        T
      </span>
      )
    </div>
  </div>,
  <div
    data-type="Row"
  >
    <div
      data-type="Col"
    >
      Sentret 200 mg
       (
      <span
        className="atc-code"
        onClick={[Function]}
      >
        ATC 
        TES
         
        T
      </span>
      )
    </div>
  </div>,
  <div
    data-type="Row"
  >
    <div
      data-type="Col"
    >
      Nincada 100 mg
       (
      <span
        className="atc-code"
        onClick={[Function]}
      >
        ATC 
        TES
         
        T
      </span>
      )
    </div>
  </div>,
  <div
    data-type="Row"
  >
    <div
      data-type="Col"
    >
      Azurill 40 mg
       (
      <span
        className="atc-code"
        onClick={[Function]}
      >
        ATC 
        TES
         
        T
      </span>
      )
    </div>
  </div>,
]
`;

exports[`MedicationSynonymsResultATC Snapshot with a notice 1`] = `
Array [
  <div
    data-type="Row"
  >
    <div
      data-type="Col"
    >
      <b>
        Merk:
      </b>
       ATC kode ikke nødvendigvis er det samme som byttbarhet, da legemidler med samme ATC kode kan ha forskjellig styrke og legemiddelform (depot/vanlig tablett, mikstur/tablett). Sjekk med ordinerende lege før du bytter.
    </div>
  </div>,
  <div
    data-type="Row"
  >
    <div
      data-type="Col"
    >
      Bibarel 0,5mg
       (
      <span
        className="atc-code"
        onClick={[Function]}
      >
        ATC 
        PMN
         
        400
      </span>
      )
      <div
        className="merknad"
      >
        <b
          className="text-danger"
        >
          MERK:
        </b>
         
        Kan ikke byttes uten videre, konsulter en lege
      </div>
    </div>
  </div>,
]
`;

exports[`MedicationSynonymsResultATC Snapshot with invalid/incomplete ATC 1`] = `
<div>
  Ingen treff på ATC koden «
  atcThatDoesNotExist
  ». Sjekk stavemåten, eventuelt prøv å søke på legemiddelnavn i stedenfor. Du kan bare søke etter fulle ATC koder (f.eks. N02AA01), du vil ikke få treff på deler av en ATC kode (f.eks. N02AA).
</div>
`;

exports[`MedicationSynonymsResultUnconnected Base snapshot: Azurill 1`] = `
<div
  data-type="Row"
>
  <div
    data-type="Col"
  >
    <div
      data-type="Row"
    >
      <div
        data-type="Col"
      >
        <b
          className="med-syn-header"
        >
          Azurill 20 mg
           (
          <span
            className="atc-code"
            onClick={[Function]}
          >
            ATC 
            TES
             
            T-0-1
          </span>
          )
        </b>
        <div
          data-type="Row"
        >
          <div
            data-type="Col"
          >
            Synonym
            :
          </div>
          <div
            data-type="Col"
          >
            <ul>
              <li>
                Gliscor 20 mg
              </li>
            </ul>
          </div>
        </div>
      </div>
    </div>
    <div
      data-type="Row"
    >
      <div
        data-type="Col"
      >
        <b
          className="med-syn-header"
        >
          Azurill 10 mg
           (
          <span
            className="atc-code"
            onClick={[Function]}
          >
            ATC 
            TES
             
            T-0-1
          </span>
          )
        </b>
        <div
          data-type="Row"
        >
          <div
            data-type="Col"
          >
            Synonym
            :
          </div>
          <div
            data-type="Col"
          >
            <ul>
              <li>
                Gliscor 10 mg
              </li>
            </ul>
          </div>
        </div>
      </div>
    </div>
    <h5>
      Legemiddel uten synonymer
    </h5>
    <div
      data-type="Row"
    >
      <div
        data-type="Col"
      >
        <b>
          Azurill 40 mg
        </b>
         (
        <span
          className="atc-code"
          onClick={[Function]}
        >
          ATC 
          TES
           
          T
        </span>
        ) har ingen kjente synonympreparat
      </div>
    </div>
  </div>
</div>
`;

exports[`MedicationSynonymsSearchBarUnconnected Base snapshot 1`] = `
<div
  data-type="Row"
>
  <div
    data-type="Col"
  >
    <input
      id="medicationSynonymsSearch"
      name="search"
      placeholder="Søk"
      type="search"
    />
  </div>
</div>
`;

exports[`MedicationSynonymsSearchBarUnconnected With string snapshot 1`] = `
<div
  data-type="Row"
>
  <div
    data-type="Col"
  >
    <input
      id="medicationSynonymsSearch"
      name="search"
      placeholder="Søk"
      type="search"
      value="test"
    />
  </div>
</div>
`;
