// Jest Snapshot v1, https://goo.gl/fbAQLP

exports[`Basic rendering 0 points 1`] = `
<div
  className="app-news"
>
  <div
    data-type="Row"
  >
    <div
      data-type="Col"
    >
      <h3>
        NEWS 2
      </h3>
    </div>
  </div>
  <div
    data-type="Row"
  >
    <div
      data-type="Col"
    >
      <div>
        <span
          className="likeLink"
          onClick={[Function]}
        >
          Hva er NEWS 2?
        </span>
        <div
          data-type="Collapse"
        >
          <div
            className="mb-4 cardLike"
          >
            NEWS 2 står for «National Early Warning Score» versjon 2. Det er et screeningverktøy som er ment til å oppdage endringer i tilstanden til en pasient tidlig, og dermed få satt i gang tiltak i god tid. Verktøyet er ikke en erstatning for klinisk skjønn. NEWS 2 egner seg heller ikke til bruk på barn under 16 år eller gravide.
          </div>
        </div>
      </div>
    </div>
  </div>
  <div
    data-type="Row"
  >
    <div
      data-type="Col"
    >
      <span
        className="abbreviation"
        id="wd-news-rf-opt"
        onClick={[Function]}
      >
        Respirasjonsfrekvens (pr.min)
      </span>
      <div
        data-type="Popover"
      >
        <div
          data-type="PopoverBody"
        >
          <p>
            Plattformen som vert nytta til å utvikle pleiar.no
          </p>
        </div>
      </div>
    </div>
    <div
      data-type="Col"
    >
      <select
        onChange={[Function]}
        value="12-20"
      >
        <option
          value="under9"
        >
          ≤8
        </option>
        <option
          value="9-11"
        >
          9-11
        </option>
        <option
          value="12-20"
        >
          12-20
        </option>
        <option
          value="21-24"
        >
          21-24
        </option>
        <option
          value="over24"
        >
          ≥25
        </option>
      </select>
    </div>
  </div>
  <div
    data-type="Row"
  >
    <div
      data-type="Col"
    >
      <span
        className="abbreviation"
        id="wd-news-spo2-opt"
        onClick={[Function]}
      >
        SpO₂ (%)
      </span>
      <div
        data-type="Popover"
      >
        <div
          data-type="PopoverBody"
        >
          <p>
            Lisensen til kjeldekoden til pleiar.no
          </p>
        </div>
      </div>
    </div>
    <div
      data-type="Col"
    >
      <select
        onChange={[Function]}
        value="over95"
      >
        <option
          value="under92"
        >
          ≤91
        </option>
        <option
          value="92-93"
        >
          92-93
        </option>
        <option
          value="94-95"
        >
          94-95
        </option>
        <option
          value="over95"
        >
          ≥95
        </option>
      </select>
    </div>
  </div>
  <div
    data-type="Row"
  >
    <div
      data-type="Col"
    >
      <div
        data-type="Label"
      >
        <input
          checked={false}
          name="alternateO2Table"
          onChange={[MockFunction]}
          type="checkbox"
        />
        Pasienten har kjent CO₂-opphopning, og lege har ordinert alternativ tolkning (NEWS 2 SpO₂ skala 2) av SpO₂.
         
        <span
          className="likeLink"
          id="whatIsAltO2"
          onClick={[Function]}
        >
          Hva er dette?
        </span>
      </div>
    </div>
  </div>
  <div
    data-type="Row"
  >
    <div
      data-type="Col"
    >
      <div
        data-type="Label"
      >
        <input
          checked={false}
          name="usingO2"
          onChange={[MockFunction]}
          type="checkbox"
        />
        Får oksygentilførsel
      </div>
    </div>
  </div>
  <div
    data-type="Row"
  >
    <div
      data-type="Col"
    >
      <span
        className="abbreviation"
        id="wd-news-bt-opt"
        onClick={[Function]}
      >
        Systolisk blodtrykk (overtrykk), mmHg
      </span>
      <div
        data-type="Popover"
      >
        <div
          data-type="PopoverBody"
        >
          <p>
            Verktøykasse for pleiepersonell laget av Fagforbundet
          </p>
        </div>
      </div>
    </div>
    <div
      data-type="Col"
    >
      <select
        onChange={[Function]}
        value="111-219"
      >
        <option
          value="under91"
        >
          ≤90
        </option>
        <option
          value="91-100"
        >
          91 - 100
        </option>
        <option
          value="101-110"
        >
          101 - 110
        </option>
        <option
          value="111-219"
        >
          111 - 219
        </option>
        <option
          value="over219"
        >
          ≥220
        </option>
      </select>
    </div>
  </div>
  <div
    data-type="Row"
  >
    <div
      data-type="Col"
    >
      Puls
    </div>
    <div
      data-type="Col"
    >
      <select
        onChange={[Function]}
        value="51-90"
      >
        <option
          value="under41"
        >
          ≤40
        </option>
        <option
          value="41-50"
        >
          41-50
        </option>
        <option
          value="51-90"
        >
          51-90
        </option>
        <option
          value="91-110"
        >
          91-110
        </option>
        <option
          value="111-130"
        >
          111-130
        </option>
        <option
          value="over130"
        >
          ≥131
        </option>
      </select>
    </div>
  </div>
  <div
    data-type="Row"
  >
    <div
      data-type="Col"
    >
      Bevissthetsnivå
    </div>
    <div
      data-type="Col"
    >
      <select
        onChange={[Function]}
        value="awake"
      >
        <option
          value="awake"
        >
          Våken
        </option>
        <option
          value="confused"
        >
          Forvirret
        </option>
        <option
          value="speech"
        >
          Responderer kun på tiltale
        </option>
        <option
          value="pain"
        >
          Responeder på smertestimuli
        </option>
        <option
          value="none"
        >
          Ikke responsiv
        </option>
      </select>
    </div>
  </div>
  <div
    data-type="Row"
  >
    <div
      data-type="Col"
    >
      Temperatur (°C)
    </div>
    <div
      data-type="Col"
    >
      <select
        onChange={[Function]}
        value="36.1-38.0"
      >
        <option
          value="under35.1"
        >
          ≤35,0
        </option>
        <option
          value="35.1-36.0"
        >
          35,1 - 36,0
        </option>
        <option
          value="36.1-38.0"
        >
          36,1 - 38,0
        </option>
        <option
          value="38.1-39.0"
        >
          38,1 - 39,0
        </option>
        <option
          value="over39.0"
        >
          ≥39,1
        </option>
      </select>
    </div>
  </div>
  <div
    data-type="Row"
  >
    <div
      data-type="Col"
    >
      <h4>
        Resultat (
        0
         poeng)
      </h4>
      <div>
        Fortsett rutinemessige målinger av NEWS, minst hver 12. time.
      </div>
      <small>
        Husk at et screeningverktøy ikke kan erstatte klinisk skjønn. Du må likevel handle hvis du mener tilstanden er verre enn poengsummen skulle tilsi.
      </small>
    </div>
  </div>
  <div
    data-type="Row"
  >
    <div
      data-type="Col"
    >
      <h5>
        Referanser
      </h5>
      <small>
        Royal College of Physicians (2017). 
        <i>
          <a
            className="external-link"
            href="https://www.rcplondon.ac.uk/projects/outputs/national-early-warning-score-news-2"
            rel="noopener noreferrer"
            target="_blank"
          >
            National Early Warning Score (NEWS) 2
          </a>
          : Standardising the assessment of acute-illness severity in the NHS. Updated report of a working party
        </i>
        . London: RCP.
        <br />
        eHåndbok OUS (2020). 
        <i>
          National Early Warning Score II (NEWS II)
        </i>
        . [internett] Tilgjengelig på: &lt;
        <a
          className="external-link"
          href="https://ehandboken.ous-hf.no/document/78636"
          rel="noopener noreferrer"
          target="_blank"
        >
          https://ehandboken.ous-hf.no/document/78636
        </a>
        &gt; [Besøkt 22 april 2020].
      </small>
    </div>
  </div>
</div>
`;

exports[`Basic rendering 1+ points 1`] = `
<div
  className="app-news"
>
  <div
    data-type="Row"
  >
    <div
      data-type="Col"
    >
      <h3>
        NEWS 2
      </h3>
    </div>
  </div>
  <div
    data-type="Row"
  >
    <div
      data-type="Col"
    >
      <div>
        <span
          className="likeLink"
          onClick={[Function]}
        >
          Hva er NEWS 2?
        </span>
        <div
          data-type="Collapse"
        >
          <div
            className="mb-4 cardLike"
          >
            NEWS 2 står for «National Early Warning Score» versjon 2. Det er et screeningverktøy som er ment til å oppdage endringer i tilstanden til en pasient tidlig, og dermed få satt i gang tiltak i god tid. Verktøyet er ikke en erstatning for klinisk skjønn. NEWS 2 egner seg heller ikke til bruk på barn under 16 år eller gravide.
          </div>
        </div>
      </div>
    </div>
  </div>
  <div
    data-type="Row"
  >
    <div
      data-type="Col"
    >
      <span
        className="abbreviation"
        id="wd-news-rf-opt"
        onClick={[Function]}
      >
        Respirasjonsfrekvens (pr.min)
      </span>
      <div
        data-type="Popover"
      >
        <div
          data-type="PopoverBody"
        >
          <p>
            Plattformen som vert nytta til å utvikle pleiar.no
          </p>
        </div>
      </div>
    </div>
    <div
      data-type="Col"
    >
      <select
        onChange={[Function]}
        value="12-20"
      >
        <option
          value="under9"
        >
          ≤8
        </option>
        <option
          value="9-11"
        >
          9-11
        </option>
        <option
          value="12-20"
        >
          12-20
        </option>
        <option
          value="21-24"
        >
          21-24
        </option>
        <option
          value="over24"
        >
          ≥25
        </option>
      </select>
    </div>
  </div>
  <div
    data-type="Row"
  >
    <div
      data-type="Col"
    >
      <span
        className="abbreviation"
        id="wd-news-spo2-opt"
        onClick={[Function]}
      >
        SpO₂ (%)
      </span>
      <div
        data-type="Popover"
      >
        <div
          data-type="PopoverBody"
        >
          <p>
            Lisensen til kjeldekoden til pleiar.no
          </p>
        </div>
      </div>
    </div>
    <div
      data-type="Col"
    >
      <select
        onChange={[Function]}
        value="over95"
      >
        <option
          value="under92"
        >
          ≤91
        </option>
        <option
          value="92-93"
        >
          92-93
        </option>
        <option
          value="94-95"
        >
          94-95
        </option>
        <option
          value="over95"
        >
          ≥95
        </option>
      </select>
    </div>
  </div>
  <div
    data-type="Row"
  >
    <div
      data-type="Col"
    >
      <div
        data-type="Label"
      >
        <input
          checked={false}
          name="alternateO2Table"
          onChange={[MockFunction]}
          type="checkbox"
        />
        Pasienten har kjent CO₂-opphopning, og lege har ordinert alternativ tolkning (NEWS 2 SpO₂ skala 2) av SpO₂.
         
        <span
          className="likeLink"
          id="whatIsAltO2"
          onClick={[Function]}
        >
          Hva er dette?
        </span>
      </div>
    </div>
  </div>
  <div
    data-type="Row"
  >
    <div
      data-type="Col"
    >
      <div
        data-type="Label"
      >
        <input
          checked={false}
          name="usingO2"
          onChange={[MockFunction]}
          type="checkbox"
        />
        Får oksygentilførsel
      </div>
    </div>
  </div>
  <div
    data-type="Row"
  >
    <div
      data-type="Col"
    >
      <span
        className="abbreviation"
        id="wd-news-bt-opt"
        onClick={[Function]}
      >
        Systolisk blodtrykk (overtrykk), mmHg
      </span>
      <div
        data-type="Popover"
      >
        <div
          data-type="PopoverBody"
        >
          <p>
            Verktøykasse for pleiepersonell laget av Fagforbundet
          </p>
        </div>
      </div>
    </div>
    <div
      data-type="Col"
    >
      <select
        onChange={[Function]}
        value="101-110"
      >
        <option
          value="under91"
        >
          ≤90
        </option>
        <option
          value="91-100"
        >
          91 - 100
        </option>
        <option
          value="101-110"
        >
          101 - 110
        </option>
        <option
          value="111-219"
        >
          111 - 219
        </option>
        <option
          value="over219"
        >
          ≥220
        </option>
      </select>
    </div>
  </div>
  <div
    data-type="Row"
  >
    <div
      data-type="Col"
    >
      Puls
    </div>
    <div
      data-type="Col"
    >
      <select
        onChange={[Function]}
        value="51-90"
      >
        <option
          value="under41"
        >
          ≤40
        </option>
        <option
          value="41-50"
        >
          41-50
        </option>
        <option
          value="51-90"
        >
          51-90
        </option>
        <option
          value="91-110"
        >
          91-110
        </option>
        <option
          value="111-130"
        >
          111-130
        </option>
        <option
          value="over130"
        >
          ≥131
        </option>
      </select>
    </div>
  </div>
  <div
    data-type="Row"
  >
    <div
      data-type="Col"
    >
      Bevissthetsnivå
    </div>
    <div
      data-type="Col"
    >
      <select
        onChange={[Function]}
        value="awake"
      >
        <option
          value="awake"
        >
          Våken
        </option>
        <option
          value="confused"
        >
          Forvirret
        </option>
        <option
          value="speech"
        >
          Responderer kun på tiltale
        </option>
        <option
          value="pain"
        >
          Responeder på smertestimuli
        </option>
        <option
          value="none"
        >
          Ikke responsiv
        </option>
      </select>
    </div>
  </div>
  <div
    data-type="Row"
  >
    <div
      data-type="Col"
    >
      Temperatur (°C)
    </div>
    <div
      data-type="Col"
    >
      <select
        onChange={[Function]}
        value="36.1-38.0"
      >
        <option
          value="under35.1"
        >
          ≤35,0
        </option>
        <option
          value="35.1-36.0"
        >
          35,1 - 36,0
        </option>
        <option
          value="36.1-38.0"
        >
          36,1 - 38,0
        </option>
        <option
          value="38.1-39.0"
        >
          38,1 - 39,0
        </option>
        <option
          value="over39.0"
        >
          ≥39,1
        </option>
      </select>
    </div>
  </div>
  <div
    data-type="Row"
  >
    <div
      data-type="Col"
    >
      <h4>
        Resultat (
        1
         poeng)
      </h4>
      <div>
        NEWS poengsummen er 
        1
        .
         
        <span
          className="font-weight-bold"
        >
          Hvis denne har økt siden sist må du informere ansvarlig sykepleier.
        </span>
        <div
          className="actions mt-2"
        >
          <h5>
            Tiltak:
          </h5>
          <ul>
            <li>
              Mål vitalia på pasienten minst hver 4-6 time.
            </li>
            <li>
              Ansvarlig sykepleier må vurdere om man skal iverksette andre tiltak (f.eks. økt hyppighet på målinger).
            </li>
          </ul>
        </div>
      </div>
      <small>
        Husk at et screeningverktøy ikke kan erstatte klinisk skjønn. Du må likevel handle hvis du mener tilstanden er verre enn poengsummen skulle tilsi.
      </small>
    </div>
  </div>
  <div
    data-type="Row"
  >
    <div
      data-type="Col"
    >
      <h4>
        Forklaring
      </h4>
      <div
        data-type="Row"
      >
        <div
          data-type="Col"
        >
          Beskrivelse
        </div>
        <div
          data-type="Col"
        >
          Poengsum
        </div>
      </div>
      <div
        data-type="Row"
      >
        <div
          data-type="Col"
        >
          Systolisk blodtrykk mellom 101-110
        </div>
        <div
          data-type="Col"
        >
          1
        </div>
      </div>
      <div
        data-type="Row"
      >
        <div
          data-type="Col"
        >
          Totalt
        </div>
        <div
          data-type="Col"
        >
          1
        </div>
      </div>
    </div>
  </div>
  <div
    data-type="Row"
  >
    <div
      data-type="Col"
    >
      <h5>
        Referanser
      </h5>
      <small>
        Royal College of Physicians (2017). 
        <i>
          <a
            className="external-link"
            href="https://www.rcplondon.ac.uk/projects/outputs/national-early-warning-score-news-2"
            rel="noopener noreferrer"
            target="_blank"
          >
            National Early Warning Score (NEWS) 2
          </a>
          : Standardising the assessment of acute-illness severity in the NHS. Updated report of a working party
        </i>
        . London: RCP.
        <br />
        eHåndbok OUS (2020). 
        <i>
          National Early Warning Score II (NEWS II)
        </i>
        . [internett] Tilgjengelig på: &lt;
        <a
          className="external-link"
          href="https://ehandboken.ous-hf.no/document/78636"
          rel="noopener noreferrer"
          target="_blank"
        >
          https://ehandboken.ous-hf.no/document/78636
        </a>
        &gt; [Besøkt 22 april 2020].
      </small>
    </div>
  </div>
</div>
`;

exports[`Basic rendering 3 pointer + 1-pointer 1`] = `
<div
  className="app-news"
>
  <div
    data-type="Row"
  >
    <div
      data-type="Col"
    >
      <h3>
        NEWS 2
      </h3>
    </div>
  </div>
  <div
    data-type="Row"
  >
    <div
      data-type="Col"
    >
      <div>
        <span
          className="likeLink"
          onClick={[Function]}
        >
          Hva er NEWS 2?
        </span>
        <div
          data-type="Collapse"
        >
          <div
            className="mb-4 cardLike"
          >
            NEWS 2 står for «National Early Warning Score» versjon 2. Det er et screeningverktøy som er ment til å oppdage endringer i tilstanden til en pasient tidlig, og dermed få satt i gang tiltak i god tid. Verktøyet er ikke en erstatning for klinisk skjønn. NEWS 2 egner seg heller ikke til bruk på barn under 16 år eller gravide.
          </div>
        </div>
      </div>
    </div>
  </div>
  <div
    data-type="Row"
  >
    <div
      data-type="Col"
    >
      <span
        className="abbreviation"
        id="wd-news-rf-opt"
        onClick={[Function]}
      >
        Respirasjonsfrekvens (pr.min)
      </span>
      <div
        data-type="Popover"
      >
        <div
          data-type="PopoverBody"
        >
          <p>
            Plattformen som vert nytta til å utvikle pleiar.no
          </p>
        </div>
      </div>
    </div>
    <div
      data-type="Col"
    >
      <select
        onChange={[Function]}
        value="12-20"
      >
        <option
          value="under9"
        >
          ≤8
        </option>
        <option
          value="9-11"
        >
          9-11
        </option>
        <option
          value="12-20"
        >
          12-20
        </option>
        <option
          value="21-24"
        >
          21-24
        </option>
        <option
          value="over24"
        >
          ≥25
        </option>
      </select>
    </div>
  </div>
  <div
    data-type="Row"
  >
    <div
      data-type="Col"
    >
      <span
        className="abbreviation"
        id="wd-news-spo2-opt"
        onClick={[Function]}
      >
        SpO₂ (%)
      </span>
      <div
        data-type="Popover"
      >
        <div
          data-type="PopoverBody"
        >
          <p>
            Lisensen til kjeldekoden til pleiar.no
          </p>
        </div>
      </div>
    </div>
    <div
      data-type="Col"
    >
      <select
        onChange={[Function]}
        value="92-93"
      >
        <option
          value="under92"
        >
          ≤91
        </option>
        <option
          value="92-93"
        >
          92-93
        </option>
        <option
          value="94-95"
        >
          94-95
        </option>
        <option
          value="over95"
        >
          ≥95
        </option>
      </select>
    </div>
  </div>
  <div
    data-type="Row"
  >
    <div
      data-type="Col"
    >
      <div
        data-type="Label"
      >
        <input
          checked={false}
          name="alternateO2Table"
          onChange={[MockFunction]}
          type="checkbox"
        />
        Pasienten har kjent CO₂-opphopning, og lege har ordinert alternativ tolkning (NEWS 2 SpO₂ skala 2) av SpO₂.
         
        <span
          className="likeLink"
          id="whatIsAltO2"
          onClick={[Function]}
        >
          Hva er dette?
        </span>
      </div>
    </div>
  </div>
  <div
    data-type="Row"
  >
    <div
      data-type="Col"
    >
      <div
        data-type="Label"
      >
        <input
          checked={false}
          name="usingO2"
          onChange={[MockFunction]}
          type="checkbox"
        />
        Får oksygentilførsel
      </div>
    </div>
  </div>
  <div
    data-type="Row"
  >
    <div
      data-type="Col"
    >
      <span
        className="abbreviation"
        id="wd-news-bt-opt"
        onClick={[Function]}
      >
        Systolisk blodtrykk (overtrykk), mmHg
      </span>
      <div
        data-type="Popover"
      >
        <div
          data-type="PopoverBody"
        >
          <p>
            Verktøykasse for pleiepersonell laget av Fagforbundet
          </p>
        </div>
      </div>
    </div>
    <div
      data-type="Col"
    >
      <select
        onChange={[Function]}
        value="111-219"
      >
        <option
          value="under91"
        >
          ≤90
        </option>
        <option
          value="91-100"
        >
          91 - 100
        </option>
        <option
          value="101-110"
        >
          101 - 110
        </option>
        <option
          value="111-219"
        >
          111 - 219
        </option>
        <option
          value="over219"
        >
          ≥220
        </option>
      </select>
    </div>
  </div>
  <div
    data-type="Row"
  >
    <div
      data-type="Col"
    >
      Puls
    </div>
    <div
      data-type="Col"
    >
      <select
        onChange={[Function]}
        value="51-90"
      >
        <option
          value="under41"
        >
          ≤40
        </option>
        <option
          value="41-50"
        >
          41-50
        </option>
        <option
          value="51-90"
        >
          51-90
        </option>
        <option
          value="91-110"
        >
          91-110
        </option>
        <option
          value="111-130"
        >
          111-130
        </option>
        <option
          value="over130"
        >
          ≥131
        </option>
      </select>
    </div>
  </div>
  <div
    data-type="Row"
  >
    <div
      data-type="Col"
    >
      Bevissthetsnivå
    </div>
    <div
      data-type="Col"
    >
      <select
        onChange={[Function]}
        value="confused"
      >
        <option
          value="awake"
        >
          Våken
        </option>
        <option
          value="confused"
        >
          Forvirret
        </option>
        <option
          value="speech"
        >
          Responderer kun på tiltale
        </option>
        <option
          value="pain"
        >
          Responeder på smertestimuli
        </option>
        <option
          value="none"
        >
          Ikke responsiv
        </option>
      </select>
    </div>
  </div>
  <div
    data-type="Row"
  >
    <div
      data-type="Col"
    >
      Temperatur (°C)
    </div>
    <div
      data-type="Col"
    >
      <select
        onChange={[Function]}
        value="36.1-38.0"
      >
        <option
          value="under35.1"
        >
          ≤35,0
        </option>
        <option
          value="35.1-36.0"
        >
          35,1 - 36,0
        </option>
        <option
          value="36.1-38.0"
        >
          36,1 - 38,0
        </option>
        <option
          value="38.1-39.0"
        >
          38,1 - 39,0
        </option>
        <option
          value="over39.0"
        >
          ≥39,1
        </option>
      </select>
    </div>
  </div>
  <div
    data-type="Row"
  >
    <div
      data-type="Col"
    >
      <h4>
        Resultat (
        5
         poeng)
      </h4>
      <div>
        NEWS 2 poengsummen er 5
        .
         
        <span
          className="font-weight-bold"
        >
          Hvis denne har økt siden sist må du umiddelbart informere ansvarlig lege.
        </span>
        <div
          className="actions mt-2"
        >
          <h5>
            Tiltak:
          </h5>
          <ul>
            <li>
              Mål vitalia på pasienten minst en gang i timen.
            </li>
            <li>
              Vurder om pasienten er i risiko for sepsis.
            </li>
            <li>
              Øykeblikkelig tilsyn av ansvarlig lege.
            </li>
          </ul>
        </div>
      </div>
      <small>
        Husk at et screeningverktøy ikke kan erstatte klinisk skjønn. Du må likevel handle hvis du mener tilstanden er verre enn poengsummen skulle tilsi.
      </small>
    </div>
  </div>
  <div
    data-type="Row"
  >
    <div
      data-type="Col"
    >
      <h4>
        Forklaring
      </h4>
      <div
        data-type="Row"
      >
        <div
          data-type="Col"
        >
          Beskrivelse
        </div>
        <div
          data-type="Col"
        >
          Poengsum
        </div>
      </div>
      <div
        data-type="Row"
      >
        <div
          data-type="Col"
        >
          Nyoppstått forvirring
        </div>
        <div
          data-type="Col"
        >
          3
        </div>
      </div>
      <div
        data-type="Row"
      >
        <div
          data-type="Col"
        >
          SpO₂ mellom 92% og 93%
        </div>
        <div
          data-type="Col"
        >
          2
        </div>
      </div>
      <div
        data-type="Row"
      >
        <div
          data-type="Col"
        >
          Totalt
        </div>
        <div
          data-type="Col"
        >
          5
        </div>
      </div>
    </div>
  </div>
  <div
    data-type="Row"
  >
    <div
      data-type="Col"
    >
      <h5>
        Referanser
      </h5>
      <small>
        Royal College of Physicians (2017). 
        <i>
          <a
            className="external-link"
            href="https://www.rcplondon.ac.uk/projects/outputs/national-early-warning-score-news-2"
            rel="noopener noreferrer"
            target="_blank"
          >
            National Early Warning Score (NEWS) 2
          </a>
          : Standardising the assessment of acute-illness severity in the NHS. Updated report of a working party
        </i>
        . London: RCP.
        <br />
        eHåndbok OUS (2020). 
        <i>
          National Early Warning Score II (NEWS II)
        </i>
        . [internett] Tilgjengelig på: &lt;
        <a
          className="external-link"
          href="https://ehandboken.ous-hf.no/document/78636"
          rel="noopener noreferrer"
          target="_blank"
        >
          https://ehandboken.ous-hf.no/document/78636
        </a>
        &gt; [Besøkt 22 april 2020].
      </small>
    </div>
  </div>
</div>
`;

exports[`Basic rendering 5+ points 1`] = `
<div
  className="app-news"
>
  <div
    data-type="Row"
  >
    <div
      data-type="Col"
    >
      <h3>
        NEWS 2
      </h3>
    </div>
  </div>
  <div
    data-type="Row"
  >
    <div
      data-type="Col"
    >
      <div>
        <span
          className="likeLink"
          onClick={[Function]}
        >
          Hva er NEWS 2?
        </span>
        <div
          data-type="Collapse"
        >
          <div
            className="mb-4 cardLike"
          >
            NEWS 2 står for «National Early Warning Score» versjon 2. Det er et screeningverktøy som er ment til å oppdage endringer i tilstanden til en pasient tidlig, og dermed få satt i gang tiltak i god tid. Verktøyet er ikke en erstatning for klinisk skjønn. NEWS 2 egner seg heller ikke til bruk på barn under 16 år eller gravide.
          </div>
        </div>
      </div>
    </div>
  </div>
  <div
    data-type="Row"
  >
    <div
      data-type="Col"
    >
      <span
        className="abbreviation"
        id="wd-news-rf-opt"
        onClick={[Function]}
      >
        Respirasjonsfrekvens (pr.min)
      </span>
      <div
        data-type="Popover"
      >
        <div
          data-type="PopoverBody"
        >
          <p>
            Plattformen som vert nytta til å utvikle pleiar.no
          </p>
        </div>
      </div>
    </div>
    <div
      data-type="Col"
    >
      <select
        onChange={[Function]}
        value="9-11"
      >
        <option
          value="under9"
        >
          ≤8
        </option>
        <option
          value="9-11"
        >
          9-11
        </option>
        <option
          value="12-20"
        >
          12-20
        </option>
        <option
          value="21-24"
        >
          21-24
        </option>
        <option
          value="over24"
        >
          ≥25
        </option>
      </select>
    </div>
  </div>
  <div
    data-type="Row"
  >
    <div
      data-type="Col"
    >
      <span
        className="abbreviation"
        id="wd-news-spo2-opt"
        onClick={[Function]}
      >
        SpO₂ (%)
      </span>
      <div
        data-type="Popover"
      >
        <div
          data-type="PopoverBody"
        >
          <p>
            Lisensen til kjeldekoden til pleiar.no
          </p>
        </div>
      </div>
    </div>
    <div
      data-type="Col"
    >
      <select
        onChange={[Function]}
        value="92-93"
      >
        <option
          value="under92"
        >
          ≤91
        </option>
        <option
          value="92-93"
        >
          92-93
        </option>
        <option
          value="94-95"
        >
          94-95
        </option>
        <option
          value="over95"
        >
          ≥95
        </option>
      </select>
    </div>
  </div>
  <div
    data-type="Row"
  >
    <div
      data-type="Col"
    >
      <div
        data-type="Label"
      >
        <input
          checked={false}
          name="alternateO2Table"
          onChange={[MockFunction]}
          type="checkbox"
        />
        Pasienten har kjent CO₂-opphopning, og lege har ordinert alternativ tolkning (NEWS 2 SpO₂ skala 2) av SpO₂.
         
        <span
          className="likeLink"
          id="whatIsAltO2"
          onClick={[Function]}
        >
          Hva er dette?
        </span>
      </div>
    </div>
  </div>
  <div
    data-type="Row"
  >
    <div
      data-type="Col"
    >
      <div
        data-type="Label"
      >
        <input
          checked={false}
          name="usingO2"
          onChange={[MockFunction]}
          type="checkbox"
        />
        Får oksygentilførsel
      </div>
    </div>
  </div>
  <div
    data-type="Row"
  >
    <div
      data-type="Col"
    >
      <span
        className="abbreviation"
        id="wd-news-bt-opt"
        onClick={[Function]}
      >
        Systolisk blodtrykk (overtrykk), mmHg
      </span>
      <div
        data-type="Popover"
      >
        <div
          data-type="PopoverBody"
        >
          <p>
            Verktøykasse for pleiepersonell laget av Fagforbundet
          </p>
        </div>
      </div>
    </div>
    <div
      data-type="Col"
    >
      <select
        onChange={[Function]}
        value="101-110"
      >
        <option
          value="under91"
        >
          ≤90
        </option>
        <option
          value="91-100"
        >
          91 - 100
        </option>
        <option
          value="101-110"
        >
          101 - 110
        </option>
        <option
          value="111-219"
        >
          111 - 219
        </option>
        <option
          value="over219"
        >
          ≥220
        </option>
      </select>
    </div>
  </div>
  <div
    data-type="Row"
  >
    <div
      data-type="Col"
    >
      Puls
    </div>
    <div
      data-type="Col"
    >
      <select
        onChange={[Function]}
        value="41-50"
      >
        <option
          value="under41"
        >
          ≤40
        </option>
        <option
          value="41-50"
        >
          41-50
        </option>
        <option
          value="51-90"
        >
          51-90
        </option>
        <option
          value="91-110"
        >
          91-110
        </option>
        <option
          value="111-130"
        >
          111-130
        </option>
        <option
          value="over130"
        >
          ≥131
        </option>
      </select>
    </div>
  </div>
  <div
    data-type="Row"
  >
    <div
      data-type="Col"
    >
      Bevissthetsnivå
    </div>
    <div
      data-type="Col"
    >
      <select
        onChange={[Function]}
        value="awake"
      >
        <option
          value="awake"
        >
          Våken
        </option>
        <option
          value="confused"
        >
          Forvirret
        </option>
        <option
          value="speech"
        >
          Responderer kun på tiltale
        </option>
        <option
          value="pain"
        >
          Responeder på smertestimuli
        </option>
        <option
          value="none"
        >
          Ikke responsiv
        </option>
      </select>
    </div>
  </div>
  <div
    data-type="Row"
  >
    <div
      data-type="Col"
    >
      Temperatur (°C)
    </div>
    <div
      data-type="Col"
    >
      <select
        onChange={[Function]}
        value="35.1-36.0"
      >
        <option
          value="under35.1"
        >
          ≤35,0
        </option>
        <option
          value="35.1-36.0"
        >
          35,1 - 36,0
        </option>
        <option
          value="36.1-38.0"
        >
          36,1 - 38,0
        </option>
        <option
          value="38.1-39.0"
        >
          38,1 - 39,0
        </option>
        <option
          value="over39.0"
        >
          ≥39,1
        </option>
      </select>
    </div>
  </div>
  <div
    data-type="Row"
  >
    <div
      data-type="Col"
    >
      <h4>
        Resultat (
        6
         poeng)
      </h4>
      <div>
        NEWS 2 poengsummen er 6
        .
         
        <span
          className="font-weight-bold"
        >
          Hvis denne har økt siden sist må du umiddelbart informere ansvarlig lege.
        </span>
        <div
          className="actions mt-2"
        >
          <h5>
            Tiltak:
          </h5>
          <ul>
            <li>
              Mål vitalia på pasienten minst en gang i timen.
            </li>
            <li>
              Vurder om pasienten er i risiko for sepsis.
            </li>
            <li>
              Øykeblikkelig tilsyn av ansvarlig lege.
            </li>
          </ul>
        </div>
      </div>
      <small>
        Husk at et screeningverktøy ikke kan erstatte klinisk skjønn. Du må likevel handle hvis du mener tilstanden er verre enn poengsummen skulle tilsi.
      </small>
    </div>
  </div>
  <div
    data-type="Row"
  >
    <div
      data-type="Col"
    >
      <h4>
        Forklaring
      </h4>
      <div
        data-type="Row"
      >
        <div
          data-type="Col"
        >
          Beskrivelse
        </div>
        <div
          data-type="Col"
        >
          Poengsum
        </div>
      </div>
      <div
        data-type="Row"
      >
        <div
          data-type="Col"
        >
          Systolisk blodtrykk mellom 101-110
        </div>
        <div
          data-type="Col"
        >
          1
        </div>
      </div>
      <div
        data-type="Row"
      >
        <div
          data-type="Col"
        >
          Puls er mellom 41 - 50
        </div>
        <div
          data-type="Col"
        >
          1
        </div>
      </div>
      <div
        data-type="Row"
      >
        <div
          data-type="Col"
        >
          Temperatur er mellom 35,1 - 36,0
        </div>
        <div
          data-type="Col"
        >
          1
        </div>
      </div>
      <div
        data-type="Row"
      >
        <div
          data-type="Col"
        >
          Respirasjonsfrekvens mellom 9 og 11
        </div>
        <div
          data-type="Col"
        >
          1
        </div>
      </div>
      <div
        data-type="Row"
      >
        <div
          data-type="Col"
        >
          SpO₂ mellom 92% og 93%
        </div>
        <div
          data-type="Col"
        >
          2
        </div>
      </div>
      <div
        data-type="Row"
      >
        <div
          data-type="Col"
        >
          Totalt
        </div>
        <div
          data-type="Col"
        >
          6
        </div>
      </div>
    </div>
  </div>
  <div
    data-type="Row"
  >
    <div
      data-type="Col"
    >
      <h5>
        Referanser
      </h5>
      <small>
        Royal College of Physicians (2017). 
        <i>
          <a
            className="external-link"
            href="https://www.rcplondon.ac.uk/projects/outputs/national-early-warning-score-news-2"
            rel="noopener noreferrer"
            target="_blank"
          >
            National Early Warning Score (NEWS) 2
          </a>
          : Standardising the assessment of acute-illness severity in the NHS. Updated report of a working party
        </i>
        . London: RCP.
        <br />
        eHåndbok OUS (2020). 
        <i>
          National Early Warning Score II (NEWS II)
        </i>
        . [internett] Tilgjengelig på: &lt;
        <a
          className="external-link"
          href="https://ehandboken.ous-hf.no/document/78636"
          rel="noopener noreferrer"
          target="_blank"
        >
          https://ehandboken.ous-hf.no/document/78636
        </a>
        &gt; [Besøkt 22 april 2020].
      </small>
    </div>
  </div>
</div>
`;

exports[`Basic rendering 7+ points 1`] = `
<div
  className="app-news"
>
  <div
    data-type="Row"
  >
    <div
      data-type="Col"
    >
      <h3>
        NEWS 2
      </h3>
    </div>
  </div>
  <div
    data-type="Row"
  >
    <div
      data-type="Col"
    >
      <div>
        <span
          className="likeLink"
          onClick={[Function]}
        >
          Hva er NEWS 2?
        </span>
        <div
          data-type="Collapse"
        >
          <div
            className="mb-4 cardLike"
          >
            NEWS 2 står for «National Early Warning Score» versjon 2. Det er et screeningverktøy som er ment til å oppdage endringer i tilstanden til en pasient tidlig, og dermed få satt i gang tiltak i god tid. Verktøyet er ikke en erstatning for klinisk skjønn. NEWS 2 egner seg heller ikke til bruk på barn under 16 år eller gravide.
          </div>
        </div>
      </div>
    </div>
  </div>
  <div
    data-type="Row"
  >
    <div
      data-type="Col"
    >
      <span
        className="abbreviation"
        id="wd-news-rf-opt"
        onClick={[Function]}
      >
        Respirasjonsfrekvens (pr.min)
      </span>
      <div
        data-type="Popover"
      >
        <div
          data-type="PopoverBody"
        >
          <p>
            Plattformen som vert nytta til å utvikle pleiar.no
          </p>
        </div>
      </div>
    </div>
    <div
      data-type="Col"
    >
      <select
        onChange={[Function]}
        value="21-24"
      >
        <option
          value="under9"
        >
          ≤8
        </option>
        <option
          value="9-11"
        >
          9-11
        </option>
        <option
          value="12-20"
        >
          12-20
        </option>
        <option
          value="21-24"
        >
          21-24
        </option>
        <option
          value="over24"
        >
          ≥25
        </option>
      </select>
    </div>
  </div>
  <div
    data-type="Row"
  >
    <div
      data-type="Col"
    >
      <span
        className="abbreviation"
        id="wd-news-spo2-opt"
        onClick={[Function]}
      >
        SpO₂ (%)
      </span>
      <div
        data-type="Popover"
      >
        <div
          data-type="PopoverBody"
        >
          <p>
            Lisensen til kjeldekoden til pleiar.no
          </p>
        </div>
      </div>
    </div>
    <div
      data-type="Col"
    >
      <select
        onChange={[Function]}
        value="92-93"
      >
        <option
          value="under92"
        >
          ≤91
        </option>
        <option
          value="92-93"
        >
          92-93
        </option>
        <option
          value="94-95"
        >
          94-95
        </option>
        <option
          value="over95"
        >
          ≥95
        </option>
      </select>
    </div>
  </div>
  <div
    data-type="Row"
  >
    <div
      data-type="Col"
    >
      <div
        data-type="Label"
      >
        <input
          checked={false}
          name="alternateO2Table"
          onChange={[MockFunction]}
          type="checkbox"
        />
        Pasienten har kjent CO₂-opphopning, og lege har ordinert alternativ tolkning (NEWS 2 SpO₂ skala 2) av SpO₂.
         
        <span
          className="likeLink"
          id="whatIsAltO2"
          onClick={[Function]}
        >
          Hva er dette?
        </span>
      </div>
    </div>
  </div>
  <div
    data-type="Row"
  >
    <div
      data-type="Col"
    >
      <div
        data-type="Label"
      >
        <input
          checked={false}
          name="usingO2"
          onChange={[MockFunction]}
          type="checkbox"
        />
        Får oksygentilførsel
      </div>
    </div>
  </div>
  <div
    data-type="Row"
  >
    <div
      data-type="Col"
    >
      <span
        className="abbreviation"
        id="wd-news-bt-opt"
        onClick={[Function]}
      >
        Systolisk blodtrykk (overtrykk), mmHg
      </span>
      <div
        data-type="Popover"
      >
        <div
          data-type="PopoverBody"
        >
          <p>
            Verktøykasse for pleiepersonell laget av Fagforbundet
          </p>
        </div>
      </div>
    </div>
    <div
      data-type="Col"
    >
      <select
        onChange={[Function]}
        value="101-110"
      >
        <option
          value="under91"
        >
          ≤90
        </option>
        <option
          value="91-100"
        >
          91 - 100
        </option>
        <option
          value="101-110"
        >
          101 - 110
        </option>
        <option
          value="111-219"
        >
          111 - 219
        </option>
        <option
          value="over219"
        >
          ≥220
        </option>
      </select>
    </div>
  </div>
  <div
    data-type="Row"
  >
    <div
      data-type="Col"
    >
      Puls
    </div>
    <div
      data-type="Col"
    >
      <select
        onChange={[Function]}
        value="41-50"
      >
        <option
          value="under41"
        >
          ≤40
        </option>
        <option
          value="41-50"
        >
          41-50
        </option>
        <option
          value="51-90"
        >
          51-90
        </option>
        <option
          value="91-110"
        >
          91-110
        </option>
        <option
          value="111-130"
        >
          111-130
        </option>
        <option
          value="over130"
        >
          ≥131
        </option>
      </select>
    </div>
  </div>
  <div
    data-type="Row"
  >
    <div
      data-type="Col"
    >
      Bevissthetsnivå
    </div>
    <div
      data-type="Col"
    >
      <select
        onChange={[Function]}
        value="awake"
      >
        <option
          value="awake"
        >
          Våken
        </option>
        <option
          value="confused"
        >
          Forvirret
        </option>
        <option
          value="speech"
        >
          Responderer kun på tiltale
        </option>
        <option
          value="pain"
        >
          Responeder på smertestimuli
        </option>
        <option
          value="none"
        >
          Ikke responsiv
        </option>
      </select>
    </div>
  </div>
  <div
    data-type="Row"
  >
    <div
      data-type="Col"
    >
      Temperatur (°C)
    </div>
    <div
      data-type="Col"
    >
      <select
        onChange={[Function]}
        value="38.1-39.0"
      >
        <option
          value="under35.1"
        >
          ≤35,0
        </option>
        <option
          value="35.1-36.0"
        >
          35,1 - 36,0
        </option>
        <option
          value="36.1-38.0"
        >
          36,1 - 38,0
        </option>
        <option
          value="38.1-39.0"
        >
          38,1 - 39,0
        </option>
        <option
          value="over39.0"
        >
          ≥39,1
        </option>
      </select>
    </div>
  </div>
  <div
    data-type="Row"
  >
    <div
      data-type="Col"
    >
      <h4>
        Resultat (
        7
         poeng)
      </h4>
      <div
        className="bg-danger text-white font-weight-bold text-center"
      >
        KONTAKT ANSVARLIG OVERLEGE UMIDDELBART!
      </div>
      <div
        className="mt-3"
      >
        NEWS 2 poengsummen er 
        7
        . 
        <span
          className="font-weight-bold"
        >
          Kontakt ansvarlig overlege.
        </span>
        <div
          className="actions mt-2"
        >
          <h5>
            Tiltak:
          </h5>
          <ul>
            <li>
              Kontinuerlig monitorering av vitalia.
            </li>
            <li>
              Vurder pasienten for overflytting til intensivavdeling.
            </li>
            <li>
              Vurder om pasienten er i risiko for sepsis.
            </li>
            <li>
              Øyeblikkelig tilsyn av overlege og anestesilege.
            </li>
          </ul>
        </div>
      </div>
    </div>
  </div>
  <div
    data-type="Row"
  >
    <div
      data-type="Col"
    >
      <h4>
        Forklaring
      </h4>
      <div
        data-type="Row"
      >
        <div
          data-type="Col"
        >
          Beskrivelse
        </div>
        <div
          data-type="Col"
        >
          Poengsum
        </div>
      </div>
      <div
        data-type="Row"
      >
        <div
          data-type="Col"
        >
          Systolisk blodtrykk mellom 101-110
        </div>
        <div
          data-type="Col"
        >
          1
        </div>
      </div>
      <div
        data-type="Row"
      >
        <div
          data-type="Col"
        >
          Puls er mellom 41 - 50
        </div>
        <div
          data-type="Col"
        >
          1
        </div>
      </div>
      <div
        data-type="Row"
      >
        <div
          data-type="Col"
        >
          Temperatur er mellom 38,1 - 39,0
        </div>
        <div
          data-type="Col"
        >
          1
        </div>
      </div>
      <div
        data-type="Row"
      >
        <div
          data-type="Col"
        >
          Respirasjonsfrekvens mellom 21 og 24
        </div>
        <div
          data-type="Col"
        >
          2
        </div>
      </div>
      <div
        data-type="Row"
      >
        <div
          data-type="Col"
        >
          SpO₂ mellom 92% og 93%
        </div>
        <div
          data-type="Col"
        >
          2
        </div>
      </div>
      <div
        data-type="Row"
      >
        <div
          data-type="Col"
        >
          Totalt
        </div>
        <div
          data-type="Col"
        >
          7
        </div>
      </div>
    </div>
  </div>
  <div
    data-type="Row"
  >
    <div
      data-type="Col"
    >
      <h5>
        Referanser
      </h5>
      <small>
        Royal College of Physicians (2017). 
        <i>
          <a
            className="external-link"
            href="https://www.rcplondon.ac.uk/projects/outputs/national-early-warning-score-news-2"
            rel="noopener noreferrer"
            target="_blank"
          >
            National Early Warning Score (NEWS) 2
          </a>
          : Standardising the assessment of acute-illness severity in the NHS. Updated report of a working party
        </i>
        . London: RCP.
        <br />
        eHåndbok OUS (2020). 
        <i>
          National Early Warning Score II (NEWS II)
        </i>
        . [internett] Tilgjengelig på: &lt;
        <a
          className="external-link"
          href="https://ehandboken.ous-hf.no/document/78636"
          rel="noopener noreferrer"
          target="_blank"
        >
          https://ehandboken.ous-hf.no/document/78636
        </a>
        &gt; [Besøkt 22 april 2020].
      </small>
    </div>
  </div>
</div>
`;

exports[`Basic rendering Default 1`] = `
<div
  className="app-news"
>
  <div
    data-type="Row"
  >
    <div
      data-type="Col"
    >
      <h3>
        NEWS 2
      </h3>
    </div>
  </div>
  <div
    data-type="Row"
  >
    <div
      data-type="Col"
    >
      <div>
        <span
          className="likeLink"
          onClick={[Function]}
        >
          Hva er NEWS 2?
        </span>
        <div
          data-type="Collapse"
        >
          <div
            className="mb-4 cardLike"
          >
            NEWS 2 står for «National Early Warning Score» versjon 2. Det er et screeningverktøy som er ment til å oppdage endringer i tilstanden til en pasient tidlig, og dermed få satt i gang tiltak i god tid. Verktøyet er ikke en erstatning for klinisk skjønn. NEWS 2 egner seg heller ikke til bruk på barn under 16 år eller gravide.
          </div>
        </div>
      </div>
    </div>
  </div>
  <div
    data-type="Row"
  >
    <div
      data-type="Col"
    >
      <span
        className="abbreviation"
        id="wd-news-rf-opt"
        onClick={[Function]}
      >
        Respirasjonsfrekvens (pr.min)
      </span>
      <div
        data-type="Popover"
      >
        <div
          data-type="PopoverBody"
        >
          <p>
            Plattformen som vert nytta til å utvikle pleiar.no
          </p>
        </div>
      </div>
    </div>
    <div
      data-type="Col"
    >
      <select
        onChange={[Function]}
      >
        <option
          value=""
        >
          RF
        </option>
        <option
          value="under9"
        >
          ≤8
        </option>
        <option
          value="9-11"
        >
          9-11
        </option>
        <option
          value="12-20"
        >
          12-20
        </option>
        <option
          value="21-24"
        >
          21-24
        </option>
        <option
          value="over24"
        >
          ≥25
        </option>
      </select>
    </div>
  </div>
  <div
    data-type="Row"
  >
    <div
      data-type="Col"
    >
      <span
        className="abbreviation"
        id="wd-news-spo2-opt"
        onClick={[Function]}
      >
        SpO₂ (%)
      </span>
      <div
        data-type="Popover"
      >
        <div
          data-type="PopoverBody"
        >
          <p>
            Lisensen til kjeldekoden til pleiar.no
          </p>
        </div>
      </div>
    </div>
    <div
      data-type="Col"
    >
      <select
        onChange={[Function]}
      >
        <option
          value=""
        >
          SpO₂ (skala 1)
        </option>
        <option
          value="under92"
        >
          ≤91
        </option>
        <option
          value="92-93"
        >
          92-93
        </option>
        <option
          value="94-95"
        >
          94-95
        </option>
        <option
          value="over95"
        >
          ≥95
        </option>
      </select>
    </div>
  </div>
  <div
    data-type="Row"
  >
    <div
      data-type="Col"
    >
      <div
        data-type="Label"
      >
        <input
          checked={false}
          name="alternateO2Table"
          type="checkbox"
        />
        Pasienten har kjent CO₂-opphopning, og lege har ordinert alternativ tolkning (NEWS 2 SpO₂ skala 2) av SpO₂.
         
        <span
          className="likeLink"
          id="whatIsAltO2"
          onClick={[Function]}
        >
          Hva er dette?
        </span>
      </div>
    </div>
  </div>
  <div
    data-type="Row"
  >
    <div
      data-type="Col"
    >
      <div
        data-type="Label"
      >
        <input
          checked={false}
          name="usingO2"
          type="checkbox"
        />
        Får oksygentilførsel
      </div>
    </div>
  </div>
  <div
    data-type="Row"
  >
    <div
      data-type="Col"
    >
      <span
        className="abbreviation"
        id="wd-news-bt-opt"
        onClick={[Function]}
      >
        Systolisk blodtrykk (overtrykk), mmHg
      </span>
      <div
        data-type="Popover"
      >
        <div
          data-type="PopoverBody"
        >
          <p>
            Verktøykasse for pleiepersonell laget av Fagforbundet
          </p>
        </div>
      </div>
    </div>
    <div
      data-type="Col"
    >
      <select
        onChange={[Function]}
      >
        <option
          value=""
        >
          Systolisk BT
        </option>
        <option
          value="under91"
        >
          ≤90
        </option>
        <option
          value="91-100"
        >
          91 - 100
        </option>
        <option
          value="101-110"
        >
          101 - 110
        </option>
        <option
          value="111-219"
        >
          111 - 219
        </option>
        <option
          value="over219"
        >
          ≥220
        </option>
      </select>
    </div>
  </div>
  <div
    data-type="Row"
  >
    <div
      data-type="Col"
    >
      Puls
    </div>
    <div
      data-type="Col"
    >
      <select
        onChange={[Function]}
      >
        <option
          value=""
        >
          Puls
        </option>
        <option
          value="under41"
        >
          ≤40
        </option>
        <option
          value="41-50"
        >
          41-50
        </option>
        <option
          value="51-90"
        >
          51-90
        </option>
        <option
          value="91-110"
        >
          91-110
        </option>
        <option
          value="111-130"
        >
          111-130
        </option>
        <option
          value="over130"
        >
          ≥131
        </option>
      </select>
    </div>
  </div>
  <div
    data-type="Row"
  >
    <div
      data-type="Col"
    >
      Bevissthetsnivå
    </div>
    <div
      data-type="Col"
    >
      <select
        onChange={[Function]}
      >
        <option
          value=""
        >
          Bevissthetsnivå
        </option>
        <option
          value="awake"
        >
          Våken
        </option>
        <option
          value="confused"
        >
          Forvirret
        </option>
        <option
          value="speech"
        >
          Responderer kun på tiltale
        </option>
        <option
          value="pain"
        >
          Responeder på smertestimuli
        </option>
        <option
          value="none"
        >
          Ikke responsiv
        </option>
      </select>
    </div>
  </div>
  <div
    data-type="Row"
  >
    <div
      data-type="Col"
    >
      Temperatur (°C)
    </div>
    <div
      data-type="Col"
    >
      <select
        onChange={[Function]}
      >
        <option
          value=""
        >
          Temp
        </option>
        <option
          value="under35.1"
        >
          ≤35,0
        </option>
        <option
          value="35.1-36.0"
        >
          35,1 - 36,0
        </option>
        <option
          value="36.1-38.0"
        >
          36,1 - 38,0
        </option>
        <option
          value="38.1-39.0"
        >
          38,1 - 39,0
        </option>
        <option
          value="over39.0"
        >
          ≥39,1
        </option>
      </select>
    </div>
  </div>
  <div
    data-type="Row"
  >
    <div
      data-type="Col"
    >
      <h4>
        Resultat
      </h4>
      Du må fylle ut alle feltene over før du får et resultat.
    </div>
  </div>
  <div
    data-type="Row"
  >
    <div
      data-type="Col"
    >
      <h5>
        Referanser
      </h5>
      <small>
        Royal College of Physicians (2017). 
        <i>
          <a
            className="external-link"
            href="https://www.rcplondon.ac.uk/projects/outputs/national-early-warning-score-news-2"
            rel="noopener noreferrer"
            target="_blank"
          >
            National Early Warning Score (NEWS) 2
          </a>
          : Standardising the assessment of acute-illness severity in the NHS. Updated report of a working party
        </i>
        . London: RCP.
        <br />
        eHåndbok OUS (2020). 
        <i>
          National Early Warning Score II (NEWS II)
        </i>
        . [internett] Tilgjengelig på: &lt;
        <a
          className="external-link"
          href="https://ehandboken.ous-hf.no/document/78636"
          rel="noopener noreferrer"
          target="_blank"
        >
          https://ehandboken.ous-hf.no/document/78636
        </a>
        &gt; [Besøkt 22 april 2020].
      </small>
    </div>
  </div>
</div>
`;

exports[`Basic rendering Single 3 pointer 1`] = `
<div
  className="app-news"
>
  <div
    data-type="Row"
  >
    <div
      data-type="Col"
    >
      <h3>
        NEWS 2
      </h3>
    </div>
  </div>
  <div
    data-type="Row"
  >
    <div
      data-type="Col"
    >
      <div>
        <span
          className="likeLink"
          onClick={[Function]}
        >
          Hva er NEWS 2?
        </span>
        <div
          data-type="Collapse"
        >
          <div
            className="mb-4 cardLike"
          >
            NEWS 2 står for «National Early Warning Score» versjon 2. Det er et screeningverktøy som er ment til å oppdage endringer i tilstanden til en pasient tidlig, og dermed få satt i gang tiltak i god tid. Verktøyet er ikke en erstatning for klinisk skjønn. NEWS 2 egner seg heller ikke til bruk på barn under 16 år eller gravide.
          </div>
        </div>
      </div>
    </div>
  </div>
  <div
    data-type="Row"
  >
    <div
      data-type="Col"
    >
      <span
        className="abbreviation"
        id="wd-news-rf-opt"
        onClick={[Function]}
      >
        Respirasjonsfrekvens (pr.min)
      </span>
      <div
        data-type="Popover"
      >
        <div
          data-type="PopoverBody"
        >
          <p>
            Plattformen som vert nytta til å utvikle pleiar.no
          </p>
        </div>
      </div>
    </div>
    <div
      data-type="Col"
    >
      <select
        onChange={[Function]}
        value="12-20"
      >
        <option
          value="under9"
        >
          ≤8
        </option>
        <option
          value="9-11"
        >
          9-11
        </option>
        <option
          value="12-20"
        >
          12-20
        </option>
        <option
          value="21-24"
        >
          21-24
        </option>
        <option
          value="over24"
        >
          ≥25
        </option>
      </select>
    </div>
  </div>
  <div
    data-type="Row"
  >
    <div
      data-type="Col"
    >
      <span
        className="abbreviation"
        id="wd-news-spo2-opt"
        onClick={[Function]}
      >
        SpO₂ (%)
      </span>
      <div
        data-type="Popover"
      >
        <div
          data-type="PopoverBody"
        >
          <p>
            Lisensen til kjeldekoden til pleiar.no
          </p>
        </div>
      </div>
    </div>
    <div
      data-type="Col"
    >
      <select
        onChange={[Function]}
        value="over95"
      >
        <option
          value="under92"
        >
          ≤91
        </option>
        <option
          value="92-93"
        >
          92-93
        </option>
        <option
          value="94-95"
        >
          94-95
        </option>
        <option
          value="over95"
        >
          ≥95
        </option>
      </select>
    </div>
  </div>
  <div
    data-type="Row"
  >
    <div
      data-type="Col"
    >
      <div
        data-type="Label"
      >
        <input
          checked={false}
          name="alternateO2Table"
          onChange={[MockFunction]}
          type="checkbox"
        />
        Pasienten har kjent CO₂-opphopning, og lege har ordinert alternativ tolkning (NEWS 2 SpO₂ skala 2) av SpO₂.
         
        <span
          className="likeLink"
          id="whatIsAltO2"
          onClick={[Function]}
        >
          Hva er dette?
        </span>
      </div>
    </div>
  </div>
  <div
    data-type="Row"
  >
    <div
      data-type="Col"
    >
      <div
        data-type="Label"
      >
        <input
          checked={false}
          name="usingO2"
          onChange={[MockFunction]}
          type="checkbox"
        />
        Får oksygentilførsel
      </div>
    </div>
  </div>
  <div
    data-type="Row"
  >
    <div
      data-type="Col"
    >
      <span
        className="abbreviation"
        id="wd-news-bt-opt"
        onClick={[Function]}
      >
        Systolisk blodtrykk (overtrykk), mmHg
      </span>
      <div
        data-type="Popover"
      >
        <div
          data-type="PopoverBody"
        >
          <p>
            Verktøykasse for pleiepersonell laget av Fagforbundet
          </p>
        </div>
      </div>
    </div>
    <div
      data-type="Col"
    >
      <select
        onChange={[Function]}
        value="111-219"
      >
        <option
          value="under91"
        >
          ≤90
        </option>
        <option
          value="91-100"
        >
          91 - 100
        </option>
        <option
          value="101-110"
        >
          101 - 110
        </option>
        <option
          value="111-219"
        >
          111 - 219
        </option>
        <option
          value="over219"
        >
          ≥220
        </option>
      </select>
    </div>
  </div>
  <div
    data-type="Row"
  >
    <div
      data-type="Col"
    >
      Puls
    </div>
    <div
      data-type="Col"
    >
      <select
        onChange={[Function]}
        value="51-90"
      >
        <option
          value="under41"
        >
          ≤40
        </option>
        <option
          value="41-50"
        >
          41-50
        </option>
        <option
          value="51-90"
        >
          51-90
        </option>
        <option
          value="91-110"
        >
          91-110
        </option>
        <option
          value="111-130"
        >
          111-130
        </option>
        <option
          value="over130"
        >
          ≥131
        </option>
      </select>
    </div>
  </div>
  <div
    data-type="Row"
  >
    <div
      data-type="Col"
    >
      Bevissthetsnivå
    </div>
    <div
      data-type="Col"
    >
      <select
        onChange={[Function]}
        value="confused"
      >
        <option
          value="awake"
        >
          Våken
        </option>
        <option
          value="confused"
        >
          Forvirret
        </option>
        <option
          value="speech"
        >
          Responderer kun på tiltale
        </option>
        <option
          value="pain"
        >
          Responeder på smertestimuli
        </option>
        <option
          value="none"
        >
          Ikke responsiv
        </option>
      </select>
    </div>
  </div>
  <div
    data-type="Row"
  >
    <div
      data-type="Col"
    >
      Temperatur (°C)
    </div>
    <div
      data-type="Col"
    >
      <select
        onChange={[Function]}
        value="36.1-38.0"
      >
        <option
          value="under35.1"
        >
          ≤35,0
        </option>
        <option
          value="35.1-36.0"
        >
          35,1 - 36,0
        </option>
        <option
          value="36.1-38.0"
        >
          36,1 - 38,0
        </option>
        <option
          value="38.1-39.0"
        >
          38,1 - 39,0
        </option>
        <option
          value="over39.0"
        >
          ≥39,1
        </option>
      </select>
    </div>
  </div>
  <div
    data-type="Row"
  >
    <div
      data-type="Col"
    >
      <h4>
        Resultat (
        3
         poeng)
      </h4>
      <div>
        Pasienten skåret 3 på bevissthetsnivå
        .
         
        <span
          className="font-weight-bold"
        >
          Du bør informere ansvarlig lege om dette.
        </span>
        <div
          className="actions mt-2"
        >
          <h5>
            Tiltak:
          </h5>
          <ul>
            <li>
              Mål vitalia på pasienten minst en gang i timen.
            </li>
            <li>
              Vurder om pasienten er i risiko for sepsis.
            </li>
            <li>
              Øykeblikkelig tilsyn av ansvarlig lege.
            </li>
          </ul>
        </div>
      </div>
      <small>
        Husk at et screeningverktøy ikke kan erstatte klinisk skjønn. Du må likevel handle hvis du mener tilstanden er verre enn poengsummen skulle tilsi.
      </small>
    </div>
  </div>
  <div
    data-type="Row"
  >
    <div
      data-type="Col"
    >
      <h4>
        Forklaring
      </h4>
      <div
        data-type="Row"
      >
        <div
          data-type="Col"
        >
          Beskrivelse
        </div>
        <div
          data-type="Col"
        >
          Poengsum
        </div>
      </div>
      <div
        data-type="Row"
      >
        <div
          data-type="Col"
        >
          Nyoppstått forvirring
        </div>
        <div
          data-type="Col"
        >
          3
        </div>
      </div>
      <div
        data-type="Row"
      >
        <div
          data-type="Col"
        >
          Totalt
        </div>
        <div
          data-type="Col"
        >
          3
        </div>
      </div>
    </div>
  </div>
  <div
    data-type="Row"
  >
    <div
      data-type="Col"
    >
      <h5>
        Referanser
      </h5>
      <small>
        Royal College of Physicians (2017). 
        <i>
          <a
            className="external-link"
            href="https://www.rcplondon.ac.uk/projects/outputs/national-early-warning-score-news-2"
            rel="noopener noreferrer"
            target="_blank"
          >
            National Early Warning Score (NEWS) 2
          </a>
          : Standardising the assessment of acute-illness severity in the NHS. Updated report of a working party
        </i>
        . London: RCP.
        <br />
        eHåndbok OUS (2020). 
        <i>
          National Early Warning Score II (NEWS II)
        </i>
        . [internett] Tilgjengelig på: &lt;
        <a
          className="external-link"
          href="https://ehandboken.ous-hf.no/document/78636"
          rel="noopener noreferrer"
          target="_blank"
        >
          https://ehandboken.ous-hf.no/document/78636
        </a>
        &gt; [Besøkt 22 april 2020].
      </small>
    </div>
  </div>
</div>
`;

exports[`Connected NEWS Basic rendering 1`] = `
<div
  className="app-news"
>
  <div
    data-type="Row"
  >
    <div
      data-type="Col"
    >
      <h3>
        NEWS 2
      </h3>
    </div>
  </div>
  <div
    data-type="Row"
  >
    <div
      data-type="Col"
    >
      <div>
        <span
          className="likeLink"
          onClick={[Function]}
        >
          Hva er NEWS 2?
        </span>
        <div
          data-type="Collapse"
        >
          <div
            className="mb-4 cardLike"
          >
            NEWS 2 står for «National Early Warning Score» versjon 2. Det er et screeningverktøy som er ment til å oppdage endringer i tilstanden til en pasient tidlig, og dermed få satt i gang tiltak i god tid. Verktøyet er ikke en erstatning for klinisk skjønn. NEWS 2 egner seg heller ikke til bruk på barn under 16 år eller gravide.
          </div>
        </div>
      </div>
    </div>
  </div>
  <div
    data-type="Row"
  >
    <div
      data-type="Col"
    >
      <span
        className="abbreviation"
        id="wd-news-rf-opt"
        onClick={[Function]}
      >
        Respirasjonsfrekvens (pr.min)
      </span>
      <div
        data-type="Popover"
      >
        <div
          data-type="PopoverBody"
        >
          <p>
            Plattformen som vert nytta til å utvikle pleiar.no
          </p>
        </div>
      </div>
    </div>
    <div
      data-type="Col"
    >
      <select
        onChange={[Function]}
        value=""
      >
        <option
          value=""
        >
          RF
        </option>
        <option
          value="under9"
        >
          ≤8
        </option>
        <option
          value="9-11"
        >
          9-11
        </option>
        <option
          value="12-20"
        >
          12-20
        </option>
        <option
          value="21-24"
        >
          21-24
        </option>
        <option
          value="over24"
        >
          ≥25
        </option>
      </select>
    </div>
  </div>
  <div
    data-type="Row"
  >
    <div
      data-type="Col"
    >
      <span
        className="abbreviation"
        id="wd-news-spo2-opt"
        onClick={[Function]}
      >
        SpO₂ (%)
      </span>
      <div
        data-type="Popover"
      >
        <div
          data-type="PopoverBody"
        >
          <p>
            Lisensen til kjeldekoden til pleiar.no
          </p>
        </div>
      </div>
    </div>
    <div
      data-type="Col"
    >
      <select
        onChange={[Function]}
        value=""
      >
        <option
          value=""
        >
          SpO₂ (skala 1)
        </option>
        <option
          value="under92"
        >
          ≤91
        </option>
        <option
          value="92-93"
        >
          92-93
        </option>
        <option
          value="94-95"
        >
          94-95
        </option>
        <option
          value="over95"
        >
          ≥95
        </option>
      </select>
    </div>
  </div>
  <div
    data-type="Row"
  >
    <div
      data-type="Col"
    >
      <div
        data-type="Label"
      >
        <input
          checked={false}
          name="alternateO2Table"
          onChange={[Function]}
          type="checkbox"
        />
        Pasienten har kjent CO₂-opphopning, og lege har ordinert alternativ tolkning (NEWS 2 SpO₂ skala 2) av SpO₂.
         
        <span
          className="likeLink"
          id="whatIsAltO2"
          onClick={[Function]}
        >
          Hva er dette?
        </span>
      </div>
    </div>
  </div>
  <div
    data-type="Row"
  >
    <div
      data-type="Col"
    >
      <div
        data-type="Label"
      >
        <input
          checked={false}
          name="usingO2"
          onChange={[Function]}
          type="checkbox"
        />
        Får oksygentilførsel
      </div>
    </div>
  </div>
  <div
    data-type="Row"
  >
    <div
      data-type="Col"
    >
      <span
        className="abbreviation"
        id="wd-news-bt-opt"
        onClick={[Function]}
      >
        Systolisk blodtrykk (overtrykk), mmHg
      </span>
      <div
        data-type="Popover"
      >
        <div
          data-type="PopoverBody"
        >
          <p>
            Verktøykasse for pleiepersonell laget av Fagforbundet
          </p>
        </div>
      </div>
    </div>
    <div
      data-type="Col"
    >
      <select
        onChange={[Function]}
        value=""
      >
        <option
          value=""
        >
          Systolisk BT
        </option>
        <option
          value="under91"
        >
          ≤90
        </option>
        <option
          value="91-100"
        >
          91 - 100
        </option>
        <option
          value="101-110"
        >
          101 - 110
        </option>
        <option
          value="111-219"
        >
          111 - 219
        </option>
        <option
          value="over219"
        >
          ≥220
        </option>
      </select>
    </div>
  </div>
  <div
    data-type="Row"
  >
    <div
      data-type="Col"
    >
      Puls
    </div>
    <div
      data-type="Col"
    >
      <select
        onChange={[Function]}
        value=""
      >
        <option
          value=""
        >
          Puls
        </option>
        <option
          value="under41"
        >
          ≤40
        </option>
        <option
          value="41-50"
        >
          41-50
        </option>
        <option
          value="51-90"
        >
          51-90
        </option>
        <option
          value="91-110"
        >
          91-110
        </option>
        <option
          value="111-130"
        >
          111-130
        </option>
        <option
          value="over130"
        >
          ≥131
        </option>
      </select>
    </div>
  </div>
  <div
    data-type="Row"
  >
    <div
      data-type="Col"
    >
      Bevissthetsnivå
    </div>
    <div
      data-type="Col"
    >
      <select
        onChange={[Function]}
        value=""
      >
        <option
          value=""
        >
          Bevissthetsnivå
        </option>
        <option
          value="awake"
        >
          Våken
        </option>
        <option
          value="confused"
        >
          Forvirret
        </option>
        <option
          value="speech"
        >
          Responderer kun på tiltale
        </option>
        <option
          value="pain"
        >
          Responeder på smertestimuli
        </option>
        <option
          value="none"
        >
          Ikke responsiv
        </option>
      </select>
    </div>
  </div>
  <div
    data-type="Row"
  >
    <div
      data-type="Col"
    >
      Temperatur (°C)
    </div>
    <div
      data-type="Col"
    >
      <select
        onChange={[Function]}
        value=""
      >
        <option
          value=""
        >
          Temp
        </option>
        <option
          value="under35.1"
        >
          ≤35,0
        </option>
        <option
          value="35.1-36.0"
        >
          35,1 - 36,0
        </option>
        <option
          value="36.1-38.0"
        >
          36,1 - 38,0
        </option>
        <option
          value="38.1-39.0"
        >
          38,1 - 39,0
        </option>
        <option
          value="over39.0"
        >
          ≥39,1
        </option>
      </select>
    </div>
  </div>
  <div
    data-type="Row"
  >
    <div
      data-type="Col"
    >
      <h4>
        Resultat
      </h4>
      Du må fylle ut alle feltene over før du får et resultat.
    </div>
  </div>
  <div
    data-type="Row"
  >
    <div
      data-type="Col"
    >
      <h5>
        Referanser
      </h5>
      <small>
        Royal College of Physicians (2017). 
        <i>
          <a
            className="external-link"
            href="https://www.rcplondon.ac.uk/projects/outputs/national-early-warning-score-news-2"
            rel="noopener noreferrer"
            target="_blank"
          >
            National Early Warning Score (NEWS) 2
          </a>
          : Standardising the assessment of acute-illness severity in the NHS. Updated report of a working party
        </i>
        . London: RCP.
        <br />
        eHåndbok OUS (2020). 
        <i>
          National Early Warning Score II (NEWS II)
        </i>
        . [internett] Tilgjengelig på: &lt;
        <a
          className="external-link"
          href="https://ehandboken.ous-hf.no/document/78636"
          rel="noopener noreferrer"
          target="_blank"
        >
          https://ehandboken.ous-hf.no/document/78636
        </a>
        &gt; [Besøkt 22 april 2020].
      </small>
    </div>
  </div>
</div>
`;

exports[`NEWSExplanationLine Header syntax with rightStyle 1`] = `
<NEWSExplanationLine
  left="left"
  right="right"
  rightStyle="right-style"
  style="base-style"
>
  <Component
    className="base-style"
  >
    <div
      data-type="Row"
    >
      <Component
        md={6}
        xs={10}
      >
        <div
          data-type="Col"
        >
          left
        </div>
      </Component>
      <Component
        className="right-style"
        xs={2}
      >
        <div
          data-type="Col"
        >
          right
        </div>
      </Component>
    </div>
  </Component>
</NEWSExplanationLine>
`;

exports[`NEWSExplanationLine Header syntax without rightStyle 1`] = `
<NEWSExplanationLine
  left="left"
  right="right"
  style="test-style"
>
  <Component
    className="test-style"
  >
    <div
      data-type="Row"
    >
      <Component
        md={6}
        xs={10}
      >
        <div
          data-type="Col"
        >
          left
        </div>
      </Component>
      <Component
        xs={2}
      >
        <div
          data-type="Col"
        >
          right
        </div>
      </Component>
    </div>
  </Component>
</NEWSExplanationLine>
`;

exports[`NEWSExplanationLine Score result=1 1`] = `
<NEWSExplanationLine
  explanation="test-explanation"
  score={1}
>
  <Component
    className="news-level-1-bg"
  >
    <div
      data-type="Row"
    >
      <Component
        md={6}
        xs={10}
      >
        <div
          data-type="Col"
        >
          test-explanation
        </div>
      </Component>
      <Component
        xs={2}
      >
        <div
          data-type="Col"
        >
          1
        </div>
      </Component>
    </div>
  </Component>
</NEWSExplanationLine>
`;

exports[`NEWSExplanationLine Score result=2 1`] = `
<NEWSExplanationLine
  explanation="test-explanation"
  score={2}
>
  <Component
    className="news-level-2-bg"
  >
    <div
      data-type="Row"
    >
      <Component
        md={6}
        xs={10}
      >
        <div
          data-type="Col"
        >
          test-explanation
        </div>
      </Component>
      <Component
        xs={2}
      >
        <div
          data-type="Col"
        >
          2
        </div>
      </Component>
    </div>
  </Component>
</NEWSExplanationLine>
`;

exports[`NEWSExplanationLine Score result=3 1`] = `
<NEWSExplanationLine
  explanation="test-explanation"
  score={3}
>
  <Component
    className="news-level-3-bg"
  >
    <div
      data-type="Row"
    >
      <Component
        md={6}
        xs={10}
      >
        <div
          data-type="Col"
        >
          test-explanation
        </div>
      </Component>
      <Component
        xs={2}
      >
        <div
          data-type="Col"
        >
          3
        </div>
      </Component>
    </div>
  </Component>
</NEWSExplanationLine>
`;

exports[`NEWSWhatIsInfo Basic rendering 1`] = `
<NEWSWhatIsInfo>
  <div>
    <span
      className="likeLink"
      onClick={[Function]}
    >
      Hva er NEWS 2?
    </span>
    <Component
      isOpen={false}
    >
      <div
        data-type="Collapse"
      >
        <div
          className="mb-4 cardLike"
        >
          NEWS 2 står for «National Early Warning Score» versjon 2. Det er et screeningverktøy som er ment til å oppdage endringer i tilstanden til en pasient tidlig, og dermed få satt i gang tiltak i god tid. Verktøyet er ikke en erstatning for klinisk skjønn. NEWS 2 egner seg heller ikke til bruk på barn under 16 år eller gravide.
        </div>
      </div>
    </Component>
  </div>
</NEWSWhatIsInfo>
`;
