// Jest Snapshot v1, https://goo.gl/fbAQLP

exports[`Basic rendering of NutriCalc req calculator 1`] = `
<div>
  <div
    className="row"
  >
    <div
      className="col"
    >
      <h3
        className="d-md-none"
      >
        Energibehov
      </h3>
      <h3
        className="d-none d-md-block"
      >
        Ernæringskalkulator - energibehov
      </h3>
    </div>
  </div>
  <div
    className="row"
  >
    <div
      className="col"
    >
      <h4
        className="d-none d-md-block"
      >
        Pasientdata
      </h4>
    </div>
  </div>
  <form
    className="smallInputElements boldColLabels"
  >
    <div
      className="row"
    >
      <label
        className="col-sm-3 col-md-2 col-form-label"
        htmlFor="patientState"
      >
        Pasienten er
      </label>
      <div
        className="align-self-center form-inline form-check col"
      >
        <label
          className="mr-2 ml-3 ml-0-sm form-check-label"
        >
          <input
            checked={false}
            className="form-check-input"
            name="patientState"
            onChange={[Function]}
            type="radio"
          />
           
          sengeliggjande
        </label>
        <label
          className="mr-2 ml-3 ml-0-sm form-check-label"
        >
          <input
            checked={true}
            className="form-check-input"
            name="patientState"
            onChange={[Function]}
            type="radio"
          />
           
          oppegåande
        </label>
        <label
          className="mr-2 ml-3 ml-0-sm form-check-label"
        >
          <input
            checked={false}
            className="form-check-input"
            name="patientState"
            onChange={[Function]}
            type="radio"
          />
           
          i ein oppbyggjande fase (målet er vektoppgang)
        </label>
      </div>
    </div>
    <div
      className="row"
    >
      <label
        className="col-3 col-sm-3 col-md-2 col-form-label"
        htmlFor="weight"
      >
        Vekt
      </label>
      <div
        className="form-inline form-check col"
      >
        <input
          className="mr-2 form-control"
          id="weight"
          max="300"
          min="1"
          onChange={[Function]}
          type="number"
          value={75}
        />
         
        kg
      </div>
    </div>
    <div
      className="row"
    >
      <label
        className="col-3 col-sm-3 col-md-2 col-form-label"
        htmlFor="ageGroup"
      >
        <span
          className="d-none d-md-block"
        >
          Aldersgruppe
        </span>
        <span
          className="d-md-none"
        >
          Alder
        </span>
      </label>
      <div
        className="align-self-center form-inline form-check col"
      >
        <label
          className="mr-2 ml-3 ml-sm-0 form-check-label"
        >
          <input
            checked={false}
            className="form-check-input"
            name="ageGroup"
            onChange={[Function]}
            type="radio"
          />
           
          18-30
        </label>
        <label
          className="mr-2 ml-3 ml-sm-0 form-check-label"
        >
          <input
            checked={true}
            className="form-check-input"
            name="ageGroup"
            onChange={[Function]}
            type="radio"
          />
           
          31-69
        </label>
        <label
          className="mr-2 ml-3 ml-sm-0 form-check-label"
        >
          <input
            checked={false}
            className="form-check-input"
            name="ageGroup"
            onChange={[Function]}
            type="radio"
          />
           
          70+
        </label>
      </div>
    </div>
    <div>
      <div
        className="row"
      >
        <div
          className="align-self-center form-inline form-check col"
        >
          <label
            className="ml-3 ml-sm-0 form-check-label"
          >
            <input
              checked={false}
              className="form-check-input"
              name="febrileState"
              onChange={[Function]}
              type="checkbox"
            />
             
            <b>
              Febril
            </b>
             
            <span
              className="d-none d-inline-md text-muted"
            >
              med ein temperatur på
            </span>
             
          </label>
          <div
            className="align-self-center form-inline text-muted"
          >
            <input
              className="mr-2 ml-2  form-control"
              disabled={true}
              id="temp"
              max="41"
              min="38"
              onChange={[Function]}
              step="0.1"
              type="number"
              value={38}
            />
            <label
              className="mr-2"
              htmlFor="temp"
            >
              grader
            </label>
          </div>
        </div>
      </div>
      <div
        className="row"
      >
        <div
          className="form-inline form-check col"
        >
          <label
            className="ml-3 ml-sm-0 form-check-label"
          >
            <input
              checked={false}
              className="form-check-input"
              name="skinnyState"
              onChange={[Function]}
              type="checkbox"
            />
            Pasienten er 
            <b>
              mager
            </b>
          </label>
        </div>
      </div>
    </div>
  </form>
  <div
    className="mt-4 row"
  >
    <div
      className="col"
    >
      <h4>
        Resultat
      </h4>
      Pasienten har behov for
       
      <b
        id="nutriCalcReqResult"
      >
        2480
         kcal/døgn
      </b>
    </div>
  </div>
  <div
    className="calculator-descriptions"
  >
    <div
      className="mt-5 text-muted row"
    >
      <div
        className="col"
      >
        <h5>
          Utrekning
        </h5>
        <small>
          <div
            className="row"
          >
            <div
              className="form-inline col"
            >
              <label
                className="roundingToggle ml-2 ml-sm-0 form-check-label"
              >
                <input
                  checked={false}
                  className="form-check-input"
                  onChange={[Function]}
                  type="checkbox"
                />
                 
                Vis tal med full presisjon
              </label>
              <label
                className="ml-4 ml-sm-2 formulaVisibilityToggle form-check-label"
              >
                <input
                  checked={false}
                  className="form-check-input"
                  onChange={[Function]}
                  type="checkbox"
                />
                 
                Vis formlar
              </label>
            </div>
          </div>
          <div
            className="calcDescription-row row"
          >
            <div
              className="header calcExplanationEntry col-7 col-lg-5"
            >
              Skildring
            </div>
            <div
              className="header calcExplanationEntry col-5 col-lg-4"
            >
              Utrekning
            </div>
            <div />
          </div>
          <div
            className="calcDescription-row row"
          >
            <div
              className="calcDescription-desc calcExplanationEntry col-7 col-lg-5"
            >
              Basisbehov 
              33
               kcal/kg for 
              oppegåande pasientar
            </div>
            <div
              className="calcCalculation-calc calculation calcExplanationEntry col-5 col-lg-4"
            >
              75
               × 33 = 
              2475
            </div>
            <div />
          </div>
          <div
            className="calcDescription-row row"
          >
            <div
              className="calcDescription-desc calcExplanationEntry col-7 col-lg-5"
            >
              Rund av
            </div>
            <div
              className="calcCalculation-calc calculation calcExplanationEntry col-5 col-lg-4"
            >
              2475
               ≈ 
              2480
            </div>
            <div />
          </div>
        </small>
      </div>
    </div>
  </div>
  <div
    className="text-secondary mt-4 row"
  >
    <div
      className="col"
    >
      <h5>
        Kjelde
      </h5>
      <small>
        Formelen er henta frå s.12 i: Statens ernæringsråd (1995).
         
        <i>
          <a
            className="external-link text-secondary"
            href="https://www.nb.no/items/URN:NBN:no-nb_digibok_2013070205012"
            rel="noopener noreferrer"
            target="_blank"
          >
            Statens ernæringsråds retningslinjer for kostholdet i helseinstitusjoner
          </a>
        </i>
        . Oslo: Universitetsforlaget.
      </small>
    </div>
  </div>
</div>
`;
