// Jest Snapshot v1, https://goo.gl/fbAQLP

exports[`Basic rendering of NutriCalc BMI calculator 1`] = `
<div>
  <div
    className="row"
  >
    <div
      className="col"
    >
      <h3>
        BMI
      </h3>
    </div>
  </div>
  <div
    className="row"
  >
    <div
      className="col"
    >
      <h4>
        Pasientdata
      </h4>
    </div>
  </div>
  <form
    className="smallInputElements boldColLabels"
  >
    <div
      className="row"
    >
      <label
        className="col-3 col-md-2 col-form-label"
        htmlFor="weight"
      >
        Vekt
      </label>
      <div
        className="form-inline col"
      >
        <input
          className="mr-2 form-control"
          id="weight"
          max="300"
          min="1"
          onChange={[Function]}
          type="number"
          value={75}
        />
         
        kg
      </div>
    </div>
    <div
      className="row"
    >
      <label
        className="col-3 col-md-2 col-form-label"
        htmlFor="weight"
      >
        Høyde
      </label>
      <div
        className="form-inline col"
      >
        <input
          className="mr-2 form-control"
          id="height"
          max="300"
          min="1"
          onChange={[Function]}
          type="number"
          value={180}
        />
         
        cm
      </div>
    </div>
  </form>
  <div
    className="mt-4 row"
  >
    <div
      className="col"
    >
      <h4>
        Resultat
      </h4>
      BMI er 
      <b
        id="nutriCalcBMIResult"
      >
        23.1
      </b>
       
      kg/m².
      <span
        className=""
      >
         
        Det kan tolkast som 
        at pasienten er
         
        <span
          id="nutriCalcBMInterp"
        >
          normalvektig (18,5-24,9)
        </span>
        .
      </span>
    </div>
  </div>
  <div
    className="calculator-descriptions"
  >
    <div
      className="mt-5 text-muted row"
    >
      <div
        className="col"
      >
        <h5>
          Utrekning
        </h5>
        <small>
          <div
            className="row"
          >
            <div
              className="form-inline col"
            >
              <label
                className="roundingToggle ml-2 ml-sm-0 form-check-label"
              >
                <input
                  checked={false}
                  className="form-check-input"
                  onChange={[Function]}
                  type="checkbox"
                />
                 
                Vis tal med full presisjon
              </label>
              <label
                className="ml-4 ml-sm-2 formulaVisibilityToggle form-check-label"
              >
                <input
                  checked={false}
                  className="form-check-input"
                  onChange={[Function]}
                  type="checkbox"
                />
                 
                Vis formlar
              </label>
            </div>
          </div>
          <div
            className="calcDescription-row row"
          >
            <div
              className="header calcExplanationEntry col-7 col-lg-5"
            >
              Skildring
            </div>
            <div
              className="header calcExplanationEntry col-5 col-lg-4"
            >
              Utrekning
            </div>
            <div />
          </div>
          <div
            className="calcDescription-row row"
          >
            <div
              className="calcDescription-desc calcExplanationEntry col-7 col-lg-5"
            >
              Konverter CM til M
            </div>
            <div
              className="calcCalculation-calc calculation calcExplanationEntry col-5 col-lg-4"
            >
              <div
                className="fraction"
              >
                <div
                  className="above"
                >
                  180
                </div>
                <div
                  className="below"
                >
                  100
                </div>
              </div>
              <div
                className="fractionResult"
              >
                = 
                1.8
              </div>
            </div>
            <div />
          </div>
          <div
            className="calcDescription-row row"
          >
            <div
              className="calcDescription-desc calcExplanationEntry col-7 col-lg-5"
            >
              Uterkning av BMI (kg/m²)
            </div>
            <div
              className="calcCalculation-calc calculation calcExplanationEntry col-5 col-lg-4"
            >
              <div
                className="fraction"
              >
                <div
                  className="above"
                >
                  75
                </div>
                <div
                  className="below"
                >
                  1.8²
                </div>
              </div>
              <div
                className="fractionResult"
              >
                = 
                23.1
              </div>
            </div>
            <div />
          </div>
        </small>
      </div>
    </div>
  </div>
  <div
    className="text-secondary mt-4 row"
  >
    <div
      className="col"
    >
      <h5>
        Kjelde
      </h5>
      <small>
        Formelen og tolkinga er henta frå Folkehelseinstituttet (2015).
         
        <i>
          <a
            className="external-link text-secondary"
            href="https://www.fhi.no/fp/overvekt/kroppsmasseindeks-kmi-og-helse/"
            rel="noopener noreferrer"
            target="_blank"
          >
            Kroppsmasseindeks (KMI) og helse.
          </a>
        </i>
         
        Oslo: Folkehelseinstituttet.
      </small>
    </div>
  </div>
</div>
`;
