// Jest Snapshot v1, https://goo.gl/fbAQLP

exports[`RoutingAssistantSyncRoutes 1`] = `
<MemoryRouter
  initialEntries={
    Array [
      Object {
        "key": "testing",
        "pathname": "/sok/test/2",
      },
    ]
  }
>
  <Router
    history={
      Object {
        "action": "POP",
        "block": [Function],
        "canGo": [Function],
        "createHref": [Function],
        "entries": Array [
          Object {
            "hash": "",
            "key": "testing",
            "pathname": "/sok/test/2",
            "search": "",
          },
        ],
        "go": [Function],
        "goBack": [Function],
        "goForward": [Function],
        "index": 0,
        "length": 1,
        "listen": [Function],
        "location": Object {
          "hash": "",
          "key": "testing",
          "pathname": "/sok/test/2",
          "search": "",
        },
        "push": [Function],
        "replace": [Function],
      }
    }
  >
    <div>
      <withRouter(RoutingAssistantInit)
        key="routing-assistant"
      >
        <RoutingAssistantInit
          history={
            Object {
              "action": "POP",
              "block": [Function],
              "canGo": [Function],
              "createHref": [Function],
              "entries": Array [
                Object {
                  "hash": "",
                  "key": "testing",
                  "pathname": "/sok/test/2",
                  "search": "",
                },
              ],
              "go": [Function],
              "goBack": [Function],
              "goForward": [Function],
              "index": 0,
              "length": 1,
              "listen": [Function],
              "location": Object {
                "hash": "",
                "key": "testing",
                "pathname": "/sok/test/2",
                "search": "",
              },
              "push": [Function],
              "replace": [Function],
            }
          }
          location={
            Object {
              "hash": "",
              "key": "testing",
              "pathname": "/sok/test/2",
              "search": "",
            }
          }
          match={
            Object {
              "isExact": false,
              "params": Object {},
              "path": "/",
              "url": "/",
            }
          }
        />
      </withRouter(RoutingAssistantInit)>
      <Route
        component={[Function]}
        key="route"
        path="/sok/:query?/:page?"
      >
        <component
          history={
            Object {
              "action": "POP",
              "block": [Function],
              "canGo": [Function],
              "createHref": [Function],
              "entries": Array [
                Object {
                  "hash": "",
                  "key": "testing",
                  "pathname": "/sok/test/2",
                  "search": "",
                },
              ],
              "go": [Function],
              "goBack": [Function],
              "goForward": [Function],
              "index": 0,
              "length": 1,
              "listen": [Function],
              "location": Object {
                "hash": "",
                "key": "testing",
                "pathname": "/sok/test/2",
                "search": "",
              },
              "push": [Function],
              "replace": [Function],
            }
          }
          location={
            Object {
              "hash": "",
              "key": "testing",
              "pathname": "/sok/test/2",
              "search": "",
            }
          }
          match={
            Object {
              "isExact": true,
              "params": Object {
                "page": "2",
                "query": "test",
              },
              "path": "/sok/:query?/:page?",
              "url": "/sok/test/2",
            }
          }
        >
          <withRouter(RoutingAssistantSyncRoutes)
            onSync={[MockFunction]}
          >
            <RoutingAssistantSyncRoutes
              history={
                Object {
                  "action": "POP",
                  "block": [Function],
                  "canGo": [Function],
                  "createHref": [Function],
                  "entries": Array [
                    Object {
                      "hash": "",
                      "key": "testing",
                      "pathname": "/sok/test/2",
                      "search": "",
                    },
                  ],
                  "go": [Function],
                  "goBack": [Function],
                  "goForward": [Function],
                  "index": 0,
                  "length": 1,
                  "listen": [Function],
                  "location": Object {
                    "hash": "",
                    "key": "testing",
                    "pathname": "/sok/test/2",
                    "search": "",
                  },
                  "push": [Function],
                  "replace": [Function],
                }
              }
              location={
                Object {
                  "hash": "",
                  "key": "testing",
                  "pathname": "/sok/test/2",
                  "search": "",
                }
              }
              match={
                Object {
                  "isExact": true,
                  "params": Object {
                    "page": "2",
                    "query": "test",
                  },
                  "path": "/sok/:query?/:page?",
                  "url": "/sok/test/2",
                }
              }
              onSync={[MockFunction]}
            />
          </withRouter(RoutingAssistantSyncRoutes)>
        </component>
      </Route>
    </div>
  </Router>
</MemoryRouter>
`;
